%YAML 1.1
%TAG !u! tag:unity3d.com,2011:
--- !u!1 &100000
GameObject:
  m_ObjectHideFlags: 0
  m_PrefabParentObject: {fileID: 0}
  m_PrefabInternal: {fileID: 100100000}
  serializedVersion: 4
  m_Component:
  - 4: {fileID: 400000}
  - 114: {fileID: 11400000}
  m_Layer: 0
  m_Name: Weapons
  m_TagString: Untagged
  m_Icon: {fileID: 0}
  m_NavMeshLayer: 0
  m_StaticEditorFlags: 0
  m_IsActive: 0
--- !u!4 &400000
Transform:
  m_ObjectHideFlags: 1
  m_PrefabParentObject: {fileID: 0}
  m_PrefabInternal: {fileID: 100100000}
  m_GameObject: {fileID: 100000}
  m_LocalRotation: {x: 0, y: 0, z: 0, w: 1}
  m_LocalPosition: {x: 0, y: 0, z: 0}
  m_LocalScale: {x: 1, y: 1, z: 1}
  m_Children: []
  m_Father: {fileID: 0}
  m_RootOrder: 0
--- !u!114 &11400000
MonoBehaviour:
  m_ObjectHideFlags: 1
  m_PrefabParentObject: {fileID: 0}
  m_PrefabInternal: {fileID: 100100000}
  m_GameObject: {fileID: 100000}
  m_Enabled: 1
  m_EditorHideFlags: 0
  m_Script: {fileID: 11500000, guid: 84c7a4b4ee15890498f818262bca0312, type: 3}
  m_Name: 
  m_EditorClassIdentifier: 
  textures: []
  textureRefs: []
  spriteSheets:
  - texture: {fileID: 2800000, guid: e2f148e5e555ec54c972d3f075450bc6, type: 3}
    tilesX: 0
    tilesY: 0
    numTiles: 0
    anchor: 4
    pad: 0
    scale: {x: 1, y: 1, z: 1}
    additive: 0
    active: 1
    tileWidth: 32
    tileHeight: 32
    tileMarginX: 0
    tileMarginY: 0
    tileSpacingX: 0
    tileSpacingY: 0
    splitMethod: 0
    version: 1
    colliderType: 0
  fonts: []
  defaults:
    additive: 0
    scale: {x: 1, y: 1, z: 1}
    anchor: 4
    pad: 0
    colliderType: 0
  platforms:
  - name: 
    spriteCollection: {fileID: 0}
  managedSpriteCollection: 0
  loadable: 0
  atlasFormat: 0
  maxTextureSize: 2048
  forceTextureSize: 0
  forcedTextureWidth: 2048
  forcedTextureHeight: 2048
  textureCompression: 0
  atlasWidth: 128
  atlasHeight: 256
  forceSquareAtlas: 0
  atlasWastage: 12.4420166
  allowMultipleAtlases: 0
  removeDuplicates: 1
  textureParams:
  - name: weapons-and-equipment/0
    disableTrimming: 0
    additive: 0
    scale: {x: 1, y: 1, z: 1}
    texture: {fileID: 2800000, guid: e2f148e5e555ec54c972d3f075450bc6, type: 3}
    materialId: 0
    anchor: 8
    anchorX: 12
    anchorY: 24
    overrideMesh: {fileID: 0}
    doubleSidedSprite: 0
    customSpriteGeometry: 0
    geometryIslands: []
    dice: 0
    diceUnitX: 64
    diceUnitY: 64
    diceFilter: 0
    pad: 0
    extraPadding: 0
    source: 0
    fromSpriteSheet: 0
    hasSpriteSheetId: 1
    spriteSheetId: 0
    spriteSheetX: 0
    spriteSheetY: 0
    extractRegion: 1
    regionX: 0
    regionY: 224
    regionW: 32
    regionH: 32
    regionId: 0
    colliderType: 0
    colliderData: []
    boxColliderMin: {x: 0, y: 0}
    boxColliderMax: {x: 0, y: 0}
    polyColliderIslands: []
    polyColliderCap: 1
    colliderConvex: 0
    colliderSmoothSphereCollisions: 0
    colliderColor: 0
    attachPoints: []
  - name: weapons-and-equipment/1
    disableTrimming: 0
    additive: 0
    scale: {x: 1, y: 1, z: 1}
    texture: {fileID: 2800000, guid: e2f148e5e555ec54c972d3f075450bc6, type: 3}
    materialId: 0
    anchor: 8
    anchorX: 12
    anchorY: 24
    overrideMesh: {fileID: 0}
    doubleSidedSprite: 0
    customSpriteGeometry: 0
    geometryIslands: []
    dice: 0
    diceUnitX: 64
    diceUnitY: 64
    diceFilter: 0
    pad: 0
    extraPadding: 0
    source: 0
    fromSpriteSheet: 0
    hasSpriteSheetId: 1
    spriteSheetId: 0
    spriteSheetX: 1
    spriteSheetY: 0
    extractRegion: 1
    regionX: 32
    regionY: 224
    regionW: 32
    regionH: 32
    regionId: 1
    colliderType: 0
    colliderData: []
    boxColliderMin: {x: 0, y: 0}
    boxColliderMax: {x: 0, y: 0}
    polyColliderIslands: []
    polyColliderCap: 1
    colliderConvex: 0
    colliderSmoothSphereCollisions: 0
    colliderColor: 0
    attachPoints: []
  - name: weapons-and-equipment/2
    disableTrimming: 0
    additive: 0
    scale: {x: 1, y: 1, z: 1}
    texture: {fileID: 2800000, guid: e2f148e5e555ec54c972d3f075450bc6, type: 3}
    materialId: 0
    anchor: 8
    anchorX: 12
    anchorY: 24
    overrideMesh: {fileID: 0}
    doubleSidedSprite: 0
    customSpriteGeometry: 0
    geometryIslands: []
    dice: 0
    diceUnitX: 64
    diceUnitY: 64
    diceFilter: 0
    pad: 0
    extraPadding: 0
    source: 0
    fromSpriteSheet: 0
    hasSpriteSheetId: 1
    spriteSheetId: 0
    spriteSheetX: 2
    spriteSheetY: 0
    extractRegion: 1
    regionX: 64
    regionY: 224
    regionW: 32
    regionH: 32
    regionId: 2
    colliderType: 0
    colliderData: []
    boxColliderMin: {x: 0, y: 0}
    boxColliderMax: {x: 0, y: 0}
    polyColliderIslands: []
    polyColliderCap: 1
    colliderConvex: 0
    colliderSmoothSphereCollisions: 0
    colliderColor: 0
    attachPoints: []
  - name: weapons-and-equipment/3
    disableTrimming: 0
    additive: 0
    scale: {x: 1, y: 1, z: 1}
    texture: {fileID: 2800000, guid: e2f148e5e555ec54c972d3f075450bc6, type: 3}
    materialId: 0
    anchor: 8
    anchorX: 12
    anchorY: 24
    overrideMesh: {fileID: 0}
    doubleSidedSprite: 0
    customSpriteGeometry: 0
    geometryIslands: []
    dice: 0
    diceUnitX: 64
    diceUnitY: 64
    diceFilter: 0
    pad: 0
    extraPadding: 0
    source: 0
    fromSpriteSheet: 0
    hasSpriteSheetId: 1
    spriteSheetId: 0
    spriteSheetX: 3
    spriteSheetY: 0
    extractRegion: 1
    regionX: 96
    regionY: 224
    regionW: 32
    regionH: 32
    regionId: 3
    colliderType: 0
    colliderData: []
    boxColliderMin: {x: 0, y: 0}
    boxColliderMax: {x: 0, y: 0}
    polyColliderIslands: []
    polyColliderCap: 1
    colliderConvex: 0
    colliderSmoothSphereCollisions: 0
    colliderColor: 0
    attachPoints: []
  - name: weapons-and-equipment/4
    disableTrimming: 0
    additive: 0
    scale: {x: 1, y: 1, z: 1}
    texture: {fileID: 2800000, guid: e2f148e5e555ec54c972d3f075450bc6, type: 3}
    materialId: 0
    anchor: 8
    anchorX: 12
    anchorY: 24
    overrideMesh: {fileID: 0}
    doubleSidedSprite: 0
    customSpriteGeometry: 0
    geometryIslands: []
    dice: 0
    diceUnitX: 64
    diceUnitY: 64
    diceFilter: 0
    pad: 0
    extraPadding: 0
    source: 0
    fromSpriteSheet: 0
    hasSpriteSheetId: 1
    spriteSheetId: 0
    spriteSheetX: 4
    spriteSheetY: 0
    extractRegion: 1
    regionX: 128
    regionY: 224
    regionW: 32
    regionH: 32
    regionId: 4
    colliderType: 0
    colliderData: []
    boxColliderMin: {x: 0, y: 0}
    boxColliderMax: {x: 0, y: 0}
    polyColliderIslands: []
    polyColliderCap: 1
    colliderConvex: 0
    colliderSmoothSphereCollisions: 0
    colliderColor: 0
    attachPoints: []
  - name: weapons-and-equipment/5
    disableTrimming: 0
    additive: 0
    scale: {x: 1, y: 1, z: 1}
    texture: {fileID: 2800000, guid: e2f148e5e555ec54c972d3f075450bc6, type: 3}
    materialId: 0
    anchor: 8
    anchorX: 12
    anchorY: 24
    overrideMesh: {fileID: 0}
    doubleSidedSprite: 0
    customSpriteGeometry: 0
    geometryIslands: []
    dice: 0
    diceUnitX: 64
    diceUnitY: 64
    diceFilter: 0
    pad: 0
    extraPadding: 0
    source: 0
    fromSpriteSheet: 0
    hasSpriteSheetId: 1
    spriteSheetId: 0
    spriteSheetX: 5
    spriteSheetY: 0
    extractRegion: 1
    regionX: 160
    regionY: 224
    regionW: 32
    regionH: 32
    regionId: 5
    colliderType: 0
    colliderData: []
    boxColliderMin: {x: 0, y: 0}
    boxColliderMax: {x: 0, y: 0}
    polyColliderIslands: []
    polyColliderCap: 1
    colliderConvex: 0
    colliderSmoothSphereCollisions: 0
    colliderColor: 0
    attachPoints: []
  - name: weapons-and-equipment/6
    disableTrimming: 0
    additive: 0
    scale: {x: 1, y: 1, z: 1}
    texture: {fileID: 2800000, guid: e2f148e5e555ec54c972d3f075450bc6, type: 3}
    materialId: 0
    anchor: 8
    anchorX: 12
    anchorY: 24
    overrideMesh: {fileID: 0}
    doubleSidedSprite: 0
    customSpriteGeometry: 0
    geometryIslands: []
    dice: 0
    diceUnitX: 64
    diceUnitY: 64
    diceFilter: 0
    pad: 0
    extraPadding: 0
    source: 0
    fromSpriteSheet: 0
    hasSpriteSheetId: 1
    spriteSheetId: 0
    spriteSheetX: 6
    spriteSheetY: 0
    extractRegion: 1
    regionX: 192
    regionY: 224
    regionW: 32
    regionH: 32
    regionId: 6
    colliderType: 0
    colliderData: []
    boxColliderMin: {x: 0, y: 0}
    boxColliderMax: {x: 0, y: 0}
    polyColliderIslands: []
    polyColliderCap: 1
    colliderConvex: 0
    colliderSmoothSphereCollisions: 0
    colliderColor: 0
    attachPoints: []
  - name: weapons-and-equipment/7
    disableTrimming: 0
    additive: 0
    scale: {x: 1, y: 1, z: 1}
    texture: {fileID: 2800000, guid: e2f148e5e555ec54c972d3f075450bc6, type: 3}
    materialId: 0
    anchor: 8
    anchorX: 12
    anchorY: 24
    overrideMesh: {fileID: 0}
    doubleSidedSprite: 0
    customSpriteGeometry: 0
    geometryIslands: []
    dice: 0
    diceUnitX: 64
    diceUnitY: 64
    diceFilter: 0
    pad: 0
    extraPadding: 0
    source: 0
    fromSpriteSheet: 0
    hasSpriteSheetId: 1
    spriteSheetId: 0
    spriteSheetX: 7
    spriteSheetY: 0
    extractRegion: 1
    regionX: 224
    regionY: 224
    regionW: 32
    regionH: 32
    regionId: 7
    colliderType: 0
    colliderData: []
    boxColliderMin: {x: 0, y: 0}
    boxColliderMax: {x: 0, y: 0}
    polyColliderIslands: []
    polyColliderCap: 1
    colliderConvex: 0
    colliderSmoothSphereCollisions: 0
    colliderColor: 0
    attachPoints: []
  - name: weapons-and-equipment/8
    disableTrimming: 0
    additive: 0
    scale: {x: 1, y: 1, z: 1}
    texture: {fileID: 2800000, guid: e2f148e5e555ec54c972d3f075450bc6, type: 3}
    materialId: 0
    anchor: 8
    anchorX: 12
    anchorY: 24
    overrideMesh: {fileID: 0}
    doubleSidedSprite: 0
    customSpriteGeometry: 0
    geometryIslands: []
    dice: 0
    diceUnitX: 64
    diceUnitY: 64
    diceFilter: 0
    pad: 0
    extraPadding: 0
    source: 0
    fromSpriteSheet: 0
    hasSpriteSheetId: 1
    spriteSheetId: 0
    spriteSheetX: 8
    spriteSheetY: 0
    extractRegion: 1
    regionX: 256
    regionY: 224
    regionW: 32
    regionH: 32
    regionId: 8
    colliderType: 0
    colliderData: []
    boxColliderMin: {x: 0, y: 0}
    boxColliderMax: {x: 0, y: 0}
    polyColliderIslands: []
    polyColliderCap: 1
    colliderConvex: 0
    colliderSmoothSphereCollisions: 0
    colliderColor: 0
    attachPoints: []
  - name: weapons-and-equipment/9
    disableTrimming: 0
    additive: 0
    scale: {x: 1, y: 1, z: 1}
    texture: {fileID: 2800000, guid: e2f148e5e555ec54c972d3f075450bc6, type: 3}
    materialId: 0
    anchor: 8
    anchorX: 12
    anchorY: 24
    overrideMesh: {fileID: 0}
    doubleSidedSprite: 0
    customSpriteGeometry: 0
    geometryIslands: []
    dice: 0
    diceUnitX: 64
    diceUnitY: 64
    diceFilter: 0
    pad: 0
    extraPadding: 0
    source: 0
    fromSpriteSheet: 0
    hasSpriteSheetId: 1
    spriteSheetId: 0
    spriteSheetX: 9
    spriteSheetY: 0
    extractRegion: 1
    regionX: 288
    regionY: 224
    regionW: 32
    regionH: 32
    regionId: 9
    colliderType: 0
    colliderData: []
    boxColliderMin: {x: 0, y: 0}
    boxColliderMax: {x: 0, y: 0}
    polyColliderIslands: []
    polyColliderCap: 1
    colliderConvex: 0
    colliderSmoothSphereCollisions: 0
    colliderColor: 0
    attachPoints: []
  - name: weapons-and-equipment/10
    disableTrimming: 0
    additive: 0
    scale: {x: 1, y: 1, z: 1}
    texture: {fileID: 2800000, guid: e2f148e5e555ec54c972d3f075450bc6, type: 3}
    materialId: 0
    anchor: 8
    anchorX: 12
    anchorY: 24
    overrideMesh: {fileID: 0}
    doubleSidedSprite: 0
    customSpriteGeometry: 0
    geometryIslands: []
    dice: 0
    diceUnitX: 64
    diceUnitY: 64
    diceFilter: 0
    pad: 0
    extraPadding: 0
    source: 0
    fromSpriteSheet: 0
    hasSpriteSheetId: 1
    spriteSheetId: 0
    spriteSheetX: 10
    spriteSheetY: 0
    extractRegion: 1
    regionX: 320
    regionY: 224
    regionW: 32
    regionH: 32
    regionId: 10
    colliderType: 0
    colliderData: []
    boxColliderMin: {x: 0, y: 0}
    boxColliderMax: {x: 0, y: 0}
    polyColliderIslands: []
    polyColliderCap: 1
    colliderConvex: 0
    colliderSmoothSphereCollisions: 0
    colliderColor: 0
    attachPoints: []
  - name: weapons-and-equipment/11
    disableTrimming: 0
    additive: 0
    scale: {x: 1, y: 1, z: 1}
    texture: {fileID: 2800000, guid: e2f148e5e555ec54c972d3f075450bc6, type: 3}
    materialId: 0
    anchor: 8
    anchorX: 12
    anchorY: 24
    overrideMesh: {fileID: 0}
    doubleSidedSprite: 0
    customSpriteGeometry: 0
    geometryIslands: []
    dice: 0
    diceUnitX: 64
    diceUnitY: 64
    diceFilter: 0
    pad: 0
    extraPadding: 0
    source: 0
    fromSpriteSheet: 0
    hasSpriteSheetId: 1
    spriteSheetId: 0
    spriteSheetX: 11
    spriteSheetY: 0
    extractRegion: 1
    regionX: 352
    regionY: 224
    regionW: 32
    regionH: 32
    regionId: 11
    colliderType: 0
    colliderData: []
    boxColliderMin: {x: 0, y: 0}
    boxColliderMax: {x: 0, y: 0}
    polyColliderIslands: []
    polyColliderCap: 1
    colliderConvex: 0
    colliderSmoothSphereCollisions: 0
    colliderColor: 0
    attachPoints: []
  - name: weapons-and-equipment/12
    disableTrimming: 0
    additive: 0
    scale: {x: 1, y: 1, z: 1}
    texture: {fileID: 2800000, guid: e2f148e5e555ec54c972d3f075450bc6, type: 3}
    materialId: 0
    anchor: 8
    anchorX: 12
    anchorY: 24
    overrideMesh: {fileID: 0}
    doubleSidedSprite: 0
    customSpriteGeometry: 0
    geometryIslands: []
    dice: 0
    diceUnitX: 64
    diceUnitY: 64
    diceFilter: 0
    pad: 0
    extraPadding: 0
    source: 0
    fromSpriteSheet: 0
    hasSpriteSheetId: 1
    spriteSheetId: 0
    spriteSheetX: 0
    spriteSheetY: 1
    extractRegion: 1
    regionX: 0
    regionY: 192
    regionW: 32
    regionH: 32
    regionId: 12
    colliderType: 0
    colliderData: []
    boxColliderMin: {x: 0, y: 0}
    boxColliderMax: {x: 0, y: 0}
    polyColliderIslands: []
    polyColliderCap: 1
    colliderConvex: 0
    colliderSmoothSphereCollisions: 0
    colliderColor: 0
    attachPoints: []
  - name: weapons-and-equipment/13
    disableTrimming: 0
    additive: 0
    scale: {x: 1, y: 1, z: 1}
    texture: {fileID: 2800000, guid: e2f148e5e555ec54c972d3f075450bc6, type: 3}
    materialId: 0
    anchor: 8
    anchorX: 12
    anchorY: 24
    overrideMesh: {fileID: 0}
    doubleSidedSprite: 0
    customSpriteGeometry: 0
    geometryIslands: []
    dice: 0
    diceUnitX: 64
    diceUnitY: 64
    diceFilter: 0
    pad: 0
    extraPadding: 0
    source: 0
    fromSpriteSheet: 0
    hasSpriteSheetId: 1
    spriteSheetId: 0
    spriteSheetX: 1
    spriteSheetY: 1
    extractRegion: 1
    regionX: 32
    regionY: 192
    regionW: 32
    regionH: 32
    regionId: 13
    colliderType: 0
    colliderData: []
    boxColliderMin: {x: 0, y: 0}
    boxColliderMax: {x: 0, y: 0}
    polyColliderIslands: []
    polyColliderCap: 1
    colliderConvex: 0
    colliderSmoothSphereCollisions: 0
    colliderColor: 0
    attachPoints: []
  - name: weapons-and-equipment/14
    disableTrimming: 0
    additive: 0
    scale: {x: 1, y: 1, z: 1}
    texture: {fileID: 2800000, guid: e2f148e5e555ec54c972d3f075450bc6, type: 3}
    materialId: 0
    anchor: 8
    anchorX: 12
    anchorY: 24
    overrideMesh: {fileID: 0}
    doubleSidedSprite: 0
    customSpriteGeometry: 0
    geometryIslands: []
    dice: 0
    diceUnitX: 64
    diceUnitY: 64
    diceFilter: 0
    pad: 0
    extraPadding: 0
    source: 0
    fromSpriteSheet: 0
    hasSpriteSheetId: 1
    spriteSheetId: 0
    spriteSheetX: 2
    spriteSheetY: 1
    extractRegion: 1
    regionX: 64
    regionY: 192
    regionW: 32
    regionH: 32
    regionId: 14
    colliderType: 0
    colliderData: []
    boxColliderMin: {x: 0, y: 0}
    boxColliderMax: {x: 0, y: 0}
    polyColliderIslands: []
    polyColliderCap: 1
    colliderConvex: 0
    colliderSmoothSphereCollisions: 0
    colliderColor: 0
    attachPoints: []
  - name: weapons-and-equipment/15
    disableTrimming: 0
    additive: 0
    scale: {x: 1, y: 1, z: 1}
    texture: {fileID: 2800000, guid: e2f148e5e555ec54c972d3f075450bc6, type: 3}
    materialId: 0
    anchor: 8
    anchorX: 12
    anchorY: 24
    overrideMesh: {fileID: 0}
    doubleSidedSprite: 0
    customSpriteGeometry: 0
    geometryIslands: []
    dice: 0
    diceUnitX: 64
    diceUnitY: 64
    diceFilter: 0
    pad: 0
    extraPadding: 0
    source: 0
    fromSpriteSheet: 0
    hasSpriteSheetId: 1
    spriteSheetId: 0
    spriteSheetX: 3
    spriteSheetY: 1
    extractRegion: 1
    regionX: 96
    regionY: 192
    regionW: 32
    regionH: 32
    regionId: 15
    colliderType: 0
    colliderData: []
    boxColliderMin: {x: 0, y: 0}
    boxColliderMax: {x: 0, y: 0}
    polyColliderIslands: []
    polyColliderCap: 1
    colliderConvex: 0
    colliderSmoothSphereCollisions: 0
    colliderColor: 0
    attachPoints: []
  - name: weapons-and-equipment/16
    disableTrimming: 0
    additive: 0
    scale: {x: 1, y: 1, z: 1}
    texture: {fileID: 2800000, guid: e2f148e5e555ec54c972d3f075450bc6, type: 3}
    materialId: 0
    anchor: 8
    anchorX: 12
    anchorY: 24
    overrideMesh: {fileID: 0}
    doubleSidedSprite: 0
    customSpriteGeometry: 0
    geometryIslands: []
    dice: 0
    diceUnitX: 64
    diceUnitY: 64
    diceFilter: 0
    pad: 0
    extraPadding: 0
    source: 0
    fromSpriteSheet: 0
    hasSpriteSheetId: 1
    spriteSheetId: 0
    spriteSheetX: 4
    spriteSheetY: 1
    extractRegion: 1
    regionX: 128
    regionY: 192
    regionW: 32
    regionH: 32
    regionId: 16
    colliderType: 0
    colliderData: []
    boxColliderMin: {x: 0, y: 0}
    boxColliderMax: {x: 0, y: 0}
    polyColliderIslands: []
    polyColliderCap: 1
    colliderConvex: 0
    colliderSmoothSphereCollisions: 0
    colliderColor: 0
    attachPoints: []
  - name: weapons-and-equipment/17
    disableTrimming: 0
    additive: 0
    scale: {x: 1, y: 1, z: 1}
    texture: {fileID: 2800000, guid: e2f148e5e555ec54c972d3f075450bc6, type: 3}
    materialId: 0
    anchor: 8
    anchorX: 12
    anchorY: 24
    overrideMesh: {fileID: 0}
    doubleSidedSprite: 0
    customSpriteGeometry: 0
    geometryIslands: []
    dice: 0
    diceUnitX: 64
    diceUnitY: 64
    diceFilter: 0
    pad: 0
    extraPadding: 0
    source: 0
    fromSpriteSheet: 0
    hasSpriteSheetId: 1
    spriteSheetId: 0
    spriteSheetX: 5
    spriteSheetY: 1
    extractRegion: 1
    regionX: 160
    regionY: 192
    regionW: 32
    regionH: 32
    regionId: 17
    colliderType: 0
    colliderData: []
    boxColliderMin: {x: 0, y: 0}
    boxColliderMax: {x: 0, y: 0}
    polyColliderIslands: []
    polyColliderCap: 1
    colliderConvex: 0
    colliderSmoothSphereCollisions: 0
    colliderColor: 0
    attachPoints: []
  - name: weapons-and-equipment/18
    disableTrimming: 0
    additive: 0
    scale: {x: 1, y: 1, z: 1}
    texture: {fileID: 2800000, guid: e2f148e5e555ec54c972d3f075450bc6, type: 3}
    materialId: 0
    anchor: 8
    anchorX: 12
    anchorY: 24
    overrideMesh: {fileID: 0}
    doubleSidedSprite: 0
    customSpriteGeometry: 0
    geometryIslands: []
    dice: 0
    diceUnitX: 64
    diceUnitY: 64
    diceFilter: 0
    pad: 0
    extraPadding: 0
    source: 0
    fromSpriteSheet: 0
    hasSpriteSheetId: 1
    spriteSheetId: 0
    spriteSheetX: 6
    spriteSheetY: 1
    extractRegion: 1
    regionX: 192
    regionY: 192
    regionW: 32
    regionH: 32
    regionId: 18
    colliderType: 0
    colliderData: []
    boxColliderMin: {x: 0, y: 0}
    boxColliderMax: {x: 0, y: 0}
    polyColliderIslands: []
    polyColliderCap: 1
    colliderConvex: 0
    colliderSmoothSphereCollisions: 0
    colliderColor: 0
    attachPoints: []
  - name: weapons-and-equipment/19
    disableTrimming: 0
    additive: 0
    scale: {x: 1, y: 1, z: 1}
    texture: {fileID: 2800000, guid: e2f148e5e555ec54c972d3f075450bc6, type: 3}
    materialId: 0
    anchor: 8
    anchorX: 12
    anchorY: 24
    overrideMesh: {fileID: 0}
    doubleSidedSprite: 0
    customSpriteGeometry: 0
    geometryIslands: []
    dice: 0
    diceUnitX: 64
    diceUnitY: 64
    diceFilter: 0
    pad: 0
    extraPadding: 0
    source: 0
    fromSpriteSheet: 0
    hasSpriteSheetId: 1
    spriteSheetId: 0
    spriteSheetX: 7
    spriteSheetY: 1
    extractRegion: 1
    regionX: 224
    regionY: 192
    regionW: 32
    regionH: 32
    regionId: 19
    colliderType: 0
    colliderData: []
    boxColliderMin: {x: 0, y: 0}
    boxColliderMax: {x: 0, y: 0}
    polyColliderIslands: []
    polyColliderCap: 1
    colliderConvex: 0
    colliderSmoothSphereCollisions: 0
    colliderColor: 0
    attachPoints: []
  - name: weapons-and-equipment/20
    disableTrimming: 0
    additive: 0
    scale: {x: 1, y: 1, z: 1}
    texture: {fileID: 2800000, guid: e2f148e5e555ec54c972d3f075450bc6, type: 3}
    materialId: 0
    anchor: 8
    anchorX: 12
    anchorY: 24
    overrideMesh: {fileID: 0}
    doubleSidedSprite: 0
    customSpriteGeometry: 0
    geometryIslands: []
    dice: 0
    diceUnitX: 64
    diceUnitY: 64
    diceFilter: 0
    pad: 0
    extraPadding: 0
    source: 0
    fromSpriteSheet: 0
    hasSpriteSheetId: 1
    spriteSheetId: 0
    spriteSheetX: 8
    spriteSheetY: 1
    extractRegion: 1
    regionX: 256
    regionY: 192
    regionW: 32
    regionH: 32
    regionId: 20
    colliderType: 0
    colliderData: []
    boxColliderMin: {x: 0, y: 0}
    boxColliderMax: {x: 0, y: 0}
    polyColliderIslands: []
    polyColliderCap: 1
    colliderConvex: 0
    colliderSmoothSphereCollisions: 0
    colliderColor: 0
    attachPoints: []
  - name: weapons-and-equipment/21
    disableTrimming: 0
    additive: 0
    scale: {x: 1, y: 1, z: 1}
    texture: {fileID: 2800000, guid: e2f148e5e555ec54c972d3f075450bc6, type: 3}
    materialId: 0
    anchor: 8
    anchorX: 12
    anchorY: 24
    overrideMesh: {fileID: 0}
    doubleSidedSprite: 0
    customSpriteGeometry: 0
    geometryIslands: []
    dice: 0
    diceUnitX: 64
    diceUnitY: 64
    diceFilter: 0
    pad: 0
    extraPadding: 0
    source: 0
    fromSpriteSheet: 0
    hasSpriteSheetId: 1
    spriteSheetId: 0
    spriteSheetX: 9
    spriteSheetY: 1
    extractRegion: 1
    regionX: 288
    regionY: 192
    regionW: 32
    regionH: 32
    regionId: 21
    colliderType: 0
    colliderData: []
    boxColliderMin: {x: 0, y: 0}
    boxColliderMax: {x: 0, y: 0}
    polyColliderIslands: []
    polyColliderCap: 1
    colliderConvex: 0
    colliderSmoothSphereCollisions: 0
    colliderColor: 0
    attachPoints: []
  - name: weapons-and-equipment/22
    disableTrimming: 0
    additive: 0
    scale: {x: 1, y: 1, z: 1}
    texture: {fileID: 2800000, guid: e2f148e5e555ec54c972d3f075450bc6, type: 3}
    materialId: 0
    anchor: 8
    anchorX: 12
    anchorY: 24
    overrideMesh: {fileID: 0}
    doubleSidedSprite: 0
    customSpriteGeometry: 0
    geometryIslands: []
    dice: 0
    diceUnitX: 64
    diceUnitY: 64
    diceFilter: 0
    pad: 0
    extraPadding: 0
    source: 0
    fromSpriteSheet: 0
    hasSpriteSheetId: 1
    spriteSheetId: 0
    spriteSheetX: 10
    spriteSheetY: 1
    extractRegion: 1
    regionX: 320
    regionY: 192
    regionW: 32
    regionH: 32
    regionId: 22
    colliderType: 0
    colliderData: []
    boxColliderMin: {x: 0, y: 0}
    boxColliderMax: {x: 0, y: 0}
    polyColliderIslands: []
    polyColliderCap: 1
    colliderConvex: 0
    colliderSmoothSphereCollisions: 0
    colliderColor: 0
    attachPoints: []
  - name: weapons-and-equipment/23
    disableTrimming: 0
    additive: 0
    scale: {x: 1, y: 1, z: 1}
    texture: {fileID: 2800000, guid: e2f148e5e555ec54c972d3f075450bc6, type: 3}
    materialId: 0
    anchor: 8
    anchorX: 12
    anchorY: 24
    overrideMesh: {fileID: 0}
    doubleSidedSprite: 0
    customSpriteGeometry: 0
    geometryIslands: []
    dice: 0
    diceUnitX: 64
    diceUnitY: 64
    diceFilter: 0
    pad: 0
    extraPadding: 0
    source: 0
    fromSpriteSheet: 0
    hasSpriteSheetId: 1
    spriteSheetId: 0
    spriteSheetX: 11
    spriteSheetY: 1
    extractRegion: 1
    regionX: 352
    regionY: 192
    regionW: 32
    regionH: 32
    regionId: 23
    colliderType: 0
    colliderData: []
    boxColliderMin: {x: 0, y: 0}
    boxColliderMax: {x: 0, y: 0}
    polyColliderIslands: []
    polyColliderCap: 1
    colliderConvex: 0
    colliderSmoothSphereCollisions: 0
    colliderColor: 0
    attachPoints: []
  - name: weapons-and-equipment/24
    disableTrimming: 0
    additive: 0
    scale: {x: 1, y: 1, z: 1}
    texture: {fileID: 2800000, guid: e2f148e5e555ec54c972d3f075450bc6, type: 3}
    materialId: 0
    anchor: 8
    anchorX: 12
    anchorY: 24
    overrideMesh: {fileID: 0}
    doubleSidedSprite: 0
    customSpriteGeometry: 0
    geometryIslands: []
    dice: 0
    diceUnitX: 64
    diceUnitY: 64
    diceFilter: 0
    pad: 0
    extraPadding: 0
    source: 0
    fromSpriteSheet: 0
    hasSpriteSheetId: 1
    spriteSheetId: 0
    spriteSheetX: 0
    spriteSheetY: 2
    extractRegion: 1
    regionX: 0
    regionY: 160
    regionW: 32
    regionH: 32
    regionId: 24
    colliderType: 0
    colliderData: []
    boxColliderMin: {x: 0, y: 0}
    boxColliderMax: {x: 0, y: 0}
    polyColliderIslands: []
    polyColliderCap: 1
    colliderConvex: 0
    colliderSmoothSphereCollisions: 0
    colliderColor: 0
    attachPoints: []
  - name: weapons-and-equipment/25
    disableTrimming: 0
    additive: 0
    scale: {x: 1, y: 1, z: 1}
    texture: {fileID: 2800000, guid: e2f148e5e555ec54c972d3f075450bc6, type: 3}
    materialId: 0
    anchor: 8
    anchorX: 12
    anchorY: 24
    overrideMesh: {fileID: 0}
    doubleSidedSprite: 0
    customSpriteGeometry: 0
    geometryIslands: []
    dice: 0
    diceUnitX: 64
    diceUnitY: 64
    diceFilter: 0
    pad: 0
    extraPadding: 0
    source: 0
    fromSpriteSheet: 0
    hasSpriteSheetId: 1
    spriteSheetId: 0
    spriteSheetX: 1
    spriteSheetY: 2
    extractRegion: 1
    regionX: 32
    regionY: 160
    regionW: 32
    regionH: 32
    regionId: 25
    colliderType: 0
    colliderData: []
    boxColliderMin: {x: 0, y: 0}
    boxColliderMax: {x: 0, y: 0}
    polyColliderIslands: []
    polyColliderCap: 1
    colliderConvex: 0
    colliderSmoothSphereCollisions: 0
    colliderColor: 0
    attachPoints: []
  - name: weapons-and-equipment/26
    disableTrimming: 0
    additive: 0
    scale: {x: 1, y: 1, z: 1}
    texture: {fileID: 2800000, guid: e2f148e5e555ec54c972d3f075450bc6, type: 3}
    materialId: 0
    anchor: 8
    anchorX: 12
    anchorY: 24
    overrideMesh: {fileID: 0}
    doubleSidedSprite: 0
    customSpriteGeometry: 0
    geometryIslands: []
    dice: 0
    diceUnitX: 64
    diceUnitY: 64
    diceFilter: 0
    pad: 0
    extraPadding: 0
    source: 0
    fromSpriteSheet: 0
    hasSpriteSheetId: 1
    spriteSheetId: 0
    spriteSheetX: 2
    spriteSheetY: 2
    extractRegion: 1
    regionX: 64
    regionY: 160
    regionW: 32
    regionH: 32
    regionId: 26
    colliderType: 0
    colliderData: []
    boxColliderMin: {x: 0, y: 0}
    boxColliderMax: {x: 0, y: 0}
    polyColliderIslands: []
    polyColliderCap: 1
    colliderConvex: 0
    colliderSmoothSphereCollisions: 0
    colliderColor: 0
    attachPoints: []
  - name: weapons-and-equipment/27
    disableTrimming: 0
    additive: 0
    scale: {x: 1, y: 1, z: 1}
    texture: {fileID: 2800000, guid: e2f148e5e555ec54c972d3f075450bc6, type: 3}
    materialId: 0
    anchor: 8
    anchorX: 12
    anchorY: 24
    overrideMesh: {fileID: 0}
    doubleSidedSprite: 0
    customSpriteGeometry: 0
    geometryIslands: []
    dice: 0
    diceUnitX: 64
    diceUnitY: 64
    diceFilter: 0
    pad: 0
    extraPadding: 0
    source: 0
    fromSpriteSheet: 0
    hasSpriteSheetId: 1
    spriteSheetId: 0
    spriteSheetX: 3
    spriteSheetY: 2
    extractRegion: 1
    regionX: 96
    regionY: 160
    regionW: 32
    regionH: 32
    regionId: 27
    colliderType: 0
    colliderData: []
    boxColliderMin: {x: 0, y: 0}
    boxColliderMax: {x: 0, y: 0}
    polyColliderIslands: []
    polyColliderCap: 1
    colliderConvex: 0
    colliderSmoothSphereCollisions: 0
    colliderColor: 0
    attachPoints: []
  - name: weapons-and-equipment/28
    disableTrimming: 0
    additive: 0
    scale: {x: 1, y: 1, z: 1}
    texture: {fileID: 2800000, guid: e2f148e5e555ec54c972d3f075450bc6, type: 3}
    materialId: 0
    anchor: 8
    anchorX: 12
    anchorY: 24
    overrideMesh: {fileID: 0}
    doubleSidedSprite: 0
    customSpriteGeometry: 0
    geometryIslands: []
    dice: 0
    diceUnitX: 64
    diceUnitY: 64
    diceFilter: 0
    pad: 0
    extraPadding: 0
    source: 0
    fromSpriteSheet: 0
    hasSpriteSheetId: 1
    spriteSheetId: 0
    spriteSheetX: 4
    spriteSheetY: 2
    extractRegion: 1
    regionX: 128
    regionY: 160
    regionW: 32
    regionH: 32
    regionId: 28
    colliderType: 0
    colliderData: []
    boxColliderMin: {x: 0, y: 0}
    boxColliderMax: {x: 0, y: 0}
    polyColliderIslands: []
    polyColliderCap: 1
    colliderConvex: 0
    colliderSmoothSphereCollisions: 0
    colliderColor: 0
    attachPoints: []
  - name: weapons-and-equipment/29
    disableTrimming: 0
    additive: 0
    scale: {x: 1, y: 1, z: 1}
    texture: {fileID: 2800000, guid: e2f148e5e555ec54c972d3f075450bc6, type: 3}
    materialId: 0
    anchor: 8
    anchorX: 12
    anchorY: 24
    overrideMesh: {fileID: 0}
    doubleSidedSprite: 0
    customSpriteGeometry: 0
    geometryIslands: []
    dice: 0
    diceUnitX: 64
    diceUnitY: 64
    diceFilter: 0
    pad: 0
    extraPadding: 0
    source: 0
    fromSpriteSheet: 0
    hasSpriteSheetId: 1
    spriteSheetId: 0
    spriteSheetX: 5
    spriteSheetY: 2
    extractRegion: 1
    regionX: 160
    regionY: 160
    regionW: 32
    regionH: 32
    regionId: 29
    colliderType: 0
    colliderData: []
    boxColliderMin: {x: 0, y: 0}
    boxColliderMax: {x: 0, y: 0}
    polyColliderIslands: []
    polyColliderCap: 1
    colliderConvex: 0
    colliderSmoothSphereCollisions: 0
    colliderColor: 0
    attachPoints: []
  - name: weapons-and-equipment/30
    disableTrimming: 0
    additive: 0
    scale: {x: 1, y: 1, z: 1}
    texture: {fileID: 2800000, guid: e2f148e5e555ec54c972d3f075450bc6, type: 3}
    materialId: 0
    anchor: 8
    anchorX: 12
    anchorY: 24
    overrideMesh: {fileID: 0}
    doubleSidedSprite: 0
    customSpriteGeometry: 0
    geometryIslands: []
    dice: 0
    diceUnitX: 64
    diceUnitY: 64
    diceFilter: 0
    pad: 0
    extraPadding: 0
    source: 0
    fromSpriteSheet: 0
    hasSpriteSheetId: 1
    spriteSheetId: 0
    spriteSheetX: 6
    spriteSheetY: 2
    extractRegion: 1
    regionX: 192
    regionY: 160
    regionW: 32
    regionH: 32
    regionId: 30
    colliderType: 0
    colliderData: []
    boxColliderMin: {x: 0, y: 0}
    boxColliderMax: {x: 0, y: 0}
    polyColliderIslands: []
    polyColliderCap: 1
    colliderConvex: 0
    colliderSmoothSphereCollisions: 0
    colliderColor: 0
    attachPoints: []
  - name: weapons-and-equipment/31
    disableTrimming: 0
    additive: 0
    scale: {x: 1, y: 1, z: 1}
    texture: {fileID: 2800000, guid: e2f148e5e555ec54c972d3f075450bc6, type: 3}
    materialId: 0
    anchor: 8
    anchorX: 12
    anchorY: 24
    overrideMesh: {fileID: 0}
    doubleSidedSprite: 0
    customSpriteGeometry: 0
    geometryIslands: []
    dice: 0
    diceUnitX: 64
    diceUnitY: 64
    diceFilter: 0
    pad: 0
    extraPadding: 0
    source: 0
    fromSpriteSheet: 0
    hasSpriteSheetId: 1
    spriteSheetId: 0
    spriteSheetX: 7
    spriteSheetY: 2
    extractRegion: 1
    regionX: 224
    regionY: 160
    regionW: 32
    regionH: 32
    regionId: 31
    colliderType: 0
    colliderData: []
    boxColliderMin: {x: 0, y: 0}
    boxColliderMax: {x: 0, y: 0}
    polyColliderIslands: []
    polyColliderCap: 1
    colliderConvex: 0
    colliderSmoothSphereCollisions: 0
    colliderColor: 0
    attachPoints: []
  - name: weapons-and-equipment/32
    disableTrimming: 0
    additive: 0
    scale: {x: 1, y: 1, z: 1}
    texture: {fileID: 2800000, guid: e2f148e5e555ec54c972d3f075450bc6, type: 3}
    materialId: 0
    anchor: 8
    anchorX: 12
    anchorY: 24
    overrideMesh: {fileID: 0}
    doubleSidedSprite: 0
    customSpriteGeometry: 0
    geometryIslands: []
    dice: 0
    diceUnitX: 64
    diceUnitY: 64
    diceFilter: 0
    pad: 0
    extraPadding: 0
    source: 0
    fromSpriteSheet: 0
    hasSpriteSheetId: 1
    spriteSheetId: 0
    spriteSheetX: 8
    spriteSheetY: 2
    extractRegion: 1
    regionX: 256
    regionY: 160
    regionW: 32
    regionH: 32
    regionId: 32
    colliderType: 0
    colliderData: []
    boxColliderMin: {x: 0, y: 0}
    boxColliderMax: {x: 0, y: 0}
    polyColliderIslands: []
    polyColliderCap: 1
    colliderConvex: 0
    colliderSmoothSphereCollisions: 0
    colliderColor: 0
    attachPoints: []
  - name: weapons-and-equipment/33
    disableTrimming: 0
    additive: 0
    scale: {x: 1, y: 1, z: 1}
    texture: {fileID: 2800000, guid: e2f148e5e555ec54c972d3f075450bc6, type: 3}
    materialId: 0
    anchor: 8
    anchorX: 12
    anchorY: 24
    overrideMesh: {fileID: 0}
    doubleSidedSprite: 0
    customSpriteGeometry: 0
    geometryIslands: []
    dice: 0
    diceUnitX: 64
    diceUnitY: 64
    diceFilter: 0
    pad: 0
    extraPadding: 0
    source: 0
    fromSpriteSheet: 0
    hasSpriteSheetId: 1
    spriteSheetId: 0
    spriteSheetX: 9
    spriteSheetY: 2
    extractRegion: 1
    regionX: 288
    regionY: 160
    regionW: 32
    regionH: 32
    regionId: 33
    colliderType: 0
    colliderData: []
    boxColliderMin: {x: 0, y: 0}
    boxColliderMax: {x: 0, y: 0}
    polyColliderIslands: []
    polyColliderCap: 1
    colliderConvex: 0
    colliderSmoothSphereCollisions: 0
    colliderColor: 0
    attachPoints: []
  - name: weapons-and-equipment/34
    disableTrimming: 0
    additive: 0
    scale: {x: 1, y: 1, z: 1}
    texture: {fileID: 2800000, guid: e2f148e5e555ec54c972d3f075450bc6, type: 3}
    materialId: 0
    anchor: 8
    anchorX: 12
    anchorY: 24
    overrideMesh: {fileID: 0}
    doubleSidedSprite: 0
    customSpriteGeometry: 0
    geometryIslands: []
    dice: 0
    diceUnitX: 64
    diceUnitY: 64
    diceFilter: 0
    pad: 0
    extraPadding: 0
    source: 0
    fromSpriteSheet: 0
    hasSpriteSheetId: 1
    spriteSheetId: 0
    spriteSheetX: 10
    spriteSheetY: 2
    extractRegion: 1
    regionX: 320
    regionY: 160
    regionW: 32
    regionH: 32
    regionId: 34
    colliderType: 0
    colliderData: []
    boxColliderMin: {x: 0, y: 0}
    boxColliderMax: {x: 0, y: 0}
    polyColliderIslands: []
    polyColliderCap: 1
    colliderConvex: 0
    colliderSmoothSphereCollisions: 0
    colliderColor: 0
    attachPoints: []
  - name: weapons-and-equipment/35
    disableTrimming: 0
    additive: 0
    scale: {x: 1, y: 1, z: 1}
    texture: {fileID: 2800000, guid: e2f148e5e555ec54c972d3f075450bc6, type: 3}
    materialId: 0
    anchor: 8
    anchorX: 12
    anchorY: 24
    overrideMesh: {fileID: 0}
    doubleSidedSprite: 0
    customSpriteGeometry: 0
    geometryIslands: []
    dice: 0
    diceUnitX: 64
    diceUnitY: 64
    diceFilter: 0
    pad: 0
    extraPadding: 0
    source: 0
    fromSpriteSheet: 0
    hasSpriteSheetId: 1
    spriteSheetId: 0
    spriteSheetX: 11
    spriteSheetY: 2
    extractRegion: 1
    regionX: 352
    regionY: 160
    regionW: 32
    regionH: 32
    regionId: 35
    colliderType: 0
    colliderData: []
    boxColliderMin: {x: 0, y: 0}
    boxColliderMax: {x: 0, y: 0}
    polyColliderIslands: []
    polyColliderCap: 1
    colliderConvex: 0
    colliderSmoothSphereCollisions: 0
    colliderColor: 0
    attachPoints: []
  - name: weapons-and-equipment/36
    disableTrimming: 0
    additive: 0
    scale: {x: 1, y: 1, z: 1}
    texture: {fileID: 2800000, guid: e2f148e5e555ec54c972d3f075450bc6, type: 3}
    materialId: 0
    anchor: 8
    anchorX: 12
    anchorY: 24
    overrideMesh: {fileID: 0}
    doubleSidedSprite: 0
    customSpriteGeometry: 0
    geometryIslands: []
    dice: 0
    diceUnitX: 64
    diceUnitY: 64
    diceFilter: 0
    pad: 0
    extraPadding: 0
    source: 0
    fromSpriteSheet: 0
    hasSpriteSheetId: 1
    spriteSheetId: 0
    spriteSheetX: 0
    spriteSheetY: 3
    extractRegion: 1
    regionX: 0
    regionY: 128
    regionW: 32
    regionH: 32
    regionId: 36
    colliderType: 0
    colliderData: []
    boxColliderMin: {x: 0, y: 0}
    boxColliderMax: {x: 0, y: 0}
    polyColliderIslands: []
    polyColliderCap: 1
    colliderConvex: 0
    colliderSmoothSphereCollisions: 0
    colliderColor: 0
    attachPoints: []
  - name: weapons-and-equipment/37
    disableTrimming: 0
    additive: 0
    scale: {x: 1, y: 1, z: 1}
    texture: {fileID: 2800000, guid: e2f148e5e555ec54c972d3f075450bc6, type: 3}
    materialId: 0
    anchor: 8
    anchorX: 12
    anchorY: 24
    overrideMesh: {fileID: 0}
    doubleSidedSprite: 0
    customSpriteGeometry: 0
    geometryIslands: []
    dice: 0
    diceUnitX: 64
    diceUnitY: 64
    diceFilter: 0
    pad: 0
    extraPadding: 0
    source: 0
    fromSpriteSheet: 0
    hasSpriteSheetId: 1
    spriteSheetId: 0
    spriteSheetX: 1
    spriteSheetY: 3
    extractRegion: 1
    regionX: 32
    regionY: 128
    regionW: 32
    regionH: 32
    regionId: 37
    colliderType: 0
    colliderData: []
    boxColliderMin: {x: 0, y: 0}
    boxColliderMax: {x: 0, y: 0}
    polyColliderIslands: []
    polyColliderCap: 1
    colliderConvex: 0
    colliderSmoothSphereCollisions: 0
    colliderColor: 0
    attachPoints: []
  - name: weapons-and-equipment/38
    disableTrimming: 0
    additive: 0
    scale: {x: 1, y: 1, z: 1}
    texture: {fileID: 2800000, guid: e2f148e5e555ec54c972d3f075450bc6, type: 3}
    materialId: 0
    anchor: 8
    anchorX: 12
    anchorY: 24
    overrideMesh: {fileID: 0}
    doubleSidedSprite: 0
    customSpriteGeometry: 0
    geometryIslands: []
    dice: 0
    diceUnitX: 64
    diceUnitY: 64
    diceFilter: 0
    pad: 0
    extraPadding: 0
    source: 0
    fromSpriteSheet: 0
    hasSpriteSheetId: 1
    spriteSheetId: 0
    spriteSheetX: 2
    spriteSheetY: 3
    extractRegion: 1
    regionX: 64
    regionY: 128
    regionW: 32
    regionH: 32
    regionId: 38
    colliderType: 0
    colliderData: []
    boxColliderMin: {x: 0, y: 0}
    boxColliderMax: {x: 0, y: 0}
    polyColliderIslands: []
    polyColliderCap: 1
    colliderConvex: 0
    colliderSmoothSphereCollisions: 0
    colliderColor: 0
    attachPoints: []
  - name: weapons-and-equipment/39
    disableTrimming: 0
    additive: 0
    scale: {x: 1, y: 1, z: 1}
    texture: {fileID: 2800000, guid: e2f148e5e555ec54c972d3f075450bc6, type: 3}
    materialId: 0
    anchor: 8
    anchorX: 12
    anchorY: 24
    overrideMesh: {fileID: 0}
    doubleSidedSprite: 0
    customSpriteGeometry: 0
    geometryIslands: []
    dice: 0
    diceUnitX: 64
    diceUnitY: 64
    diceFilter: 0
    pad: 0
    extraPadding: 0
    source: 0
    fromSpriteSheet: 0
    hasSpriteSheetId: 1
    spriteSheetId: 0
    spriteSheetX: 3
    spriteSheetY: 3
    extractRegion: 1
    regionX: 96
    regionY: 128
    regionW: 32
    regionH: 32
    regionId: 39
    colliderType: 0
    colliderData: []
    boxColliderMin: {x: 0, y: 0}
    boxColliderMax: {x: 0, y: 0}
    polyColliderIslands: []
    polyColliderCap: 1
    colliderConvex: 0
    colliderSmoothSphereCollisions: 0
    colliderColor: 0
    attachPoints: []
  - name: weapons-and-equipment/40
    disableTrimming: 0
    additive: 0
    scale: {x: 1, y: 1, z: 1}
    texture: {fileID: 2800000, guid: e2f148e5e555ec54c972d3f075450bc6, type: 3}
    materialId: 0
    anchor: 8
    anchorX: 12
    anchorY: 24
    overrideMesh: {fileID: 0}
    doubleSidedSprite: 0
    customSpriteGeometry: 0
    geometryIslands: []
    dice: 0
    diceUnitX: 64
    diceUnitY: 64
    diceFilter: 0
    pad: 0
    extraPadding: 0
    source: 0
    fromSpriteSheet: 0
    hasSpriteSheetId: 1
    spriteSheetId: 0
    spriteSheetX: 4
    spriteSheetY: 3
    extractRegion: 1
    regionX: 128
    regionY: 128
    regionW: 32
    regionH: 32
    regionId: 40
    colliderType: 0
    colliderData: []
    boxColliderMin: {x: 0, y: 0}
    boxColliderMax: {x: 0, y: 0}
    polyColliderIslands: []
    polyColliderCap: 1
    colliderConvex: 0
    colliderSmoothSphereCollisions: 0
    colliderColor: 0
    attachPoints: []
  - name: weapons-and-equipment/41
    disableTrimming: 0
    additive: 0
    scale: {x: 1, y: 1, z: 1}
    texture: {fileID: 2800000, guid: e2f148e5e555ec54c972d3f075450bc6, type: 3}
    materialId: 0
    anchor: 8
    anchorX: 12
    anchorY: 24
    overrideMesh: {fileID: 0}
    doubleSidedSprite: 0
    customSpriteGeometry: 0
    geometryIslands: []
    dice: 0
    diceUnitX: 64
    diceUnitY: 64
    diceFilter: 0
    pad: 0
    extraPadding: 0
    source: 0
    fromSpriteSheet: 0
    hasSpriteSheetId: 1
    spriteSheetId: 0
    spriteSheetX: 5
    spriteSheetY: 3
    extractRegion: 1
    regionX: 160
    regionY: 128
    regionW: 32
    regionH: 32
    regionId: 41
    colliderType: 0
    colliderData: []
    boxColliderMin: {x: 0, y: 0}
    boxColliderMax: {x: 0, y: 0}
    polyColliderIslands: []
    polyColliderCap: 1
    colliderConvex: 0
    colliderSmoothSphereCollisions: 0
    colliderColor: 0
    attachPoints: []
  - name: weapons-and-equipment/42
    disableTrimming: 0
    additive: 0
    scale: {x: 1, y: 1, z: 1}
    texture: {fileID: 2800000, guid: e2f148e5e555ec54c972d3f075450bc6, type: 3}
    materialId: 0
    anchor: 8
    anchorX: 12
    anchorY: 24
    overrideMesh: {fileID: 0}
    doubleSidedSprite: 0
    customSpriteGeometry: 0
    geometryIslands: []
    dice: 0
    diceUnitX: 64
    diceUnitY: 64
    diceFilter: 0
    pad: 0
    extraPadding: 0
    source: 0
    fromSpriteSheet: 0
    hasSpriteSheetId: 1
    spriteSheetId: 0
    spriteSheetX: 6
    spriteSheetY: 3
    extractRegion: 1
    regionX: 192
    regionY: 128
    regionW: 32
    regionH: 32
    regionId: 42
    colliderType: 0
    colliderData: []
    boxColliderMin: {x: 0, y: 0}
    boxColliderMax: {x: 0, y: 0}
    polyColliderIslands: []
    polyColliderCap: 1
    colliderConvex: 0
    colliderSmoothSphereCollisions: 0
    colliderColor: 0
    attachPoints: []
  - name: weapons-and-equipment/43
    disableTrimming: 0
    additive: 0
    scale: {x: 1, y: 1, z: 1}
    texture: {fileID: 2800000, guid: e2f148e5e555ec54c972d3f075450bc6, type: 3}
    materialId: 0
    anchor: 8
    anchorX: 12
    anchorY: 24
    overrideMesh: {fileID: 0}
    doubleSidedSprite: 0
    customSpriteGeometry: 0
    geometryIslands: []
    dice: 0
    diceUnitX: 64
    diceUnitY: 64
    diceFilter: 0
    pad: 0
    extraPadding: 0
    source: 0
    fromSpriteSheet: 0
    hasSpriteSheetId: 1
    spriteSheetId: 0
    spriteSheetX: 7
    spriteSheetY: 3
    extractRegion: 1
    regionX: 224
    regionY: 128
    regionW: 32
    regionH: 32
    regionId: 43
    colliderType: 0
    colliderData: []
    boxColliderMin: {x: 0, y: 0}
    boxColliderMax: {x: 0, y: 0}
    polyColliderIslands: []
    polyColliderCap: 1
    colliderConvex: 0
    colliderSmoothSphereCollisions: 0
    colliderColor: 0
    attachPoints: []
  - name: weapons-and-equipment/44
    disableTrimming: 0
    additive: 0
    scale: {x: 1, y: 1, z: 1}
    texture: {fileID: 2800000, guid: e2f148e5e555ec54c972d3f075450bc6, type: 3}
    materialId: 0
    anchor: 8
    anchorX: 12
    anchorY: 24
    overrideMesh: {fileID: 0}
    doubleSidedSprite: 0
    customSpriteGeometry: 0
    geometryIslands: []
    dice: 0
    diceUnitX: 64
    diceUnitY: 64
    diceFilter: 0
    pad: 0
    extraPadding: 0
    source: 0
    fromSpriteSheet: 0
    hasSpriteSheetId: 1
    spriteSheetId: 0
    spriteSheetX: 8
    spriteSheetY: 3
    extractRegion: 1
    regionX: 256
    regionY: 128
    regionW: 32
    regionH: 32
    regionId: 44
    colliderType: 0
    colliderData: []
    boxColliderMin: {x: 0, y: 0}
    boxColliderMax: {x: 0, y: 0}
    polyColliderIslands: []
    polyColliderCap: 1
    colliderConvex: 0
    colliderSmoothSphereCollisions: 0
    colliderColor: 0
    attachPoints: []
  - name: weapons-and-equipment/45
    disableTrimming: 0
    additive: 0
    scale: {x: 1, y: 1, z: 1}
    texture: {fileID: 2800000, guid: e2f148e5e555ec54c972d3f075450bc6, type: 3}
    materialId: 0
    anchor: 8
    anchorX: 12
    anchorY: 24
    overrideMesh: {fileID: 0}
    doubleSidedSprite: 0
    customSpriteGeometry: 0
    geometryIslands: []
    dice: 0
    diceUnitX: 64
    diceUnitY: 64
    diceFilter: 0
    pad: 0
    extraPadding: 0
    source: 0
    fromSpriteSheet: 0
    hasSpriteSheetId: 1
    spriteSheetId: 0
    spriteSheetX: 9
    spriteSheetY: 3
    extractRegion: 1
    regionX: 288
    regionY: 128
    regionW: 32
    regionH: 32
    regionId: 45
    colliderType: 0
    colliderData: []
    boxColliderMin: {x: 0, y: 0}
    boxColliderMax: {x: 0, y: 0}
    polyColliderIslands: []
    polyColliderCap: 1
    colliderConvex: 0
    colliderSmoothSphereCollisions: 0
    colliderColor: 0
    attachPoints: []
  - name: weapons-and-equipment/46
    disableTrimming: 0
    additive: 0
    scale: {x: 1, y: 1, z: 1}
    texture: {fileID: 2800000, guid: e2f148e5e555ec54c972d3f075450bc6, type: 3}
    materialId: 0
    anchor: 8
    anchorX: 12
    anchorY: 24
    overrideMesh: {fileID: 0}
    doubleSidedSprite: 0
    customSpriteGeometry: 0
    geometryIslands: []
    dice: 0
    diceUnitX: 64
    diceUnitY: 64
    diceFilter: 0
    pad: 0
    extraPadding: 0
    source: 0
    fromSpriteSheet: 0
    hasSpriteSheetId: 1
    spriteSheetId: 0
    spriteSheetX: 10
    spriteSheetY: 3
    extractRegion: 1
    regionX: 320
    regionY: 128
    regionW: 32
    regionH: 32
    regionId: 46
    colliderType: 0
    colliderData: []
    boxColliderMin: {x: 0, y: 0}
    boxColliderMax: {x: 0, y: 0}
    polyColliderIslands: []
    polyColliderCap: 1
    colliderConvex: 0
    colliderSmoothSphereCollisions: 0
    colliderColor: 0
    attachPoints: []
  - name: weapons-and-equipment/47
    disableTrimming: 0
    additive: 0
    scale: {x: 1, y: 1, z: 1}
    texture: {fileID: 2800000, guid: e2f148e5e555ec54c972d3f075450bc6, type: 3}
    materialId: 0
    anchor: 8
    anchorX: 12
    anchorY: 24
    overrideMesh: {fileID: 0}
    doubleSidedSprite: 0
    customSpriteGeometry: 0
    geometryIslands: []
    dice: 0
    diceUnitX: 64
    diceUnitY: 64
    diceFilter: 0
    pad: 0
    extraPadding: 0
    source: 0
    fromSpriteSheet: 0
    hasSpriteSheetId: 1
    spriteSheetId: 0
    spriteSheetX: 11
    spriteSheetY: 3
    extractRegion: 1
    regionX: 352
    regionY: 128
    regionW: 32
    regionH: 32
    regionId: 47
    colliderType: 0
    colliderData: []
    boxColliderMin: {x: 0, y: 0}
    boxColliderMax: {x: 0, y: 0}
    polyColliderIslands: []
    polyColliderCap: 1
    colliderConvex: 0
    colliderSmoothSphereCollisions: 0
    colliderColor: 0
    attachPoints: []
  - name: weapons-and-equipment/48
    disableTrimming: 0
    additive: 0
    scale: {x: 1, y: 1, z: 1}
    texture: {fileID: 2800000, guid: e2f148e5e555ec54c972d3f075450bc6, type: 3}
    materialId: 0
    anchor: 8
    anchorX: 12
    anchorY: 24
    overrideMesh: {fileID: 0}
    doubleSidedSprite: 0
    customSpriteGeometry: 0
    geometryIslands: []
    dice: 0
    diceUnitX: 64
    diceUnitY: 64
    diceFilter: 0
    pad: 0
    extraPadding: 0
    source: 0
    fromSpriteSheet: 0
    hasSpriteSheetId: 1
    spriteSheetId: 0
    spriteSheetX: 0
    spriteSheetY: 4
    extractRegion: 1
    regionX: 0
    regionY: 96
    regionW: 32
    regionH: 32
    regionId: 48
    colliderType: 0
    colliderData: []
    boxColliderMin: {x: 0, y: 0}
    boxColliderMax: {x: 0, y: 0}
    polyColliderIslands: []
    polyColliderCap: 1
    colliderConvex: 0
    colliderSmoothSphereCollisions: 0
    colliderColor: 0
    attachPoints: []
  - name: weapons-and-equipment/49
    disableTrimming: 0
    additive: 0
    scale: {x: 1, y: 1, z: 1}
    texture: {fileID: 2800000, guid: e2f148e5e555ec54c972d3f075450bc6, type: 3}
    materialId: 0
    anchor: 8
    anchorX: 12
    anchorY: 24
    overrideMesh: {fileID: 0}
    doubleSidedSprite: 0
    customSpriteGeometry: 0
    geometryIslands: []
    dice: 0
    diceUnitX: 64
    diceUnitY: 64
    diceFilter: 0
    pad: 0
    extraPadding: 0
    source: 0
    fromSpriteSheet: 0
    hasSpriteSheetId: 1
    spriteSheetId: 0
    spriteSheetX: 1
    spriteSheetY: 4
    extractRegion: 1
    regionX: 32
    regionY: 96
    regionW: 32
    regionH: 32
    regionId: 49
    colliderType: 0
    colliderData: []
    boxColliderMin: {x: 0, y: 0}
    boxColliderMax: {x: 0, y: 0}
    polyColliderIslands: []
    polyColliderCap: 1
    colliderConvex: 0
    colliderSmoothSphereCollisions: 0
    colliderColor: 0
    attachPoints: []
  - name: weapons-and-equipment/50
    disableTrimming: 0
    additive: 0
    scale: {x: 1, y: 1, z: 1}
    texture: {fileID: 2800000, guid: e2f148e5e555ec54c972d3f075450bc6, type: 3}
    materialId: 0
    anchor: 8
    anchorX: 12
    anchorY: 24
    overrideMesh: {fileID: 0}
    doubleSidedSprite: 0
    customSpriteGeometry: 0
    geometryIslands: []
    dice: 0
    diceUnitX: 64
    diceUnitY: 64
    diceFilter: 0
    pad: 0
    extraPadding: 0
    source: 0
    fromSpriteSheet: 0
    hasSpriteSheetId: 1
    spriteSheetId: 0
    spriteSheetX: 2
    spriteSheetY: 4
    extractRegion: 1
    regionX: 64
    regionY: 96
    regionW: 32
    regionH: 32
    regionId: 50
    colliderType: 0
    colliderData: []
    boxColliderMin: {x: 0, y: 0}
    boxColliderMax: {x: 0, y: 0}
    polyColliderIslands: []
    polyColliderCap: 1
    colliderConvex: 0
    colliderSmoothSphereCollisions: 0
    colliderColor: 0
    attachPoints: []
  - name: weapons-and-equipment/51
    disableTrimming: 0
    additive: 0
    scale: {x: 1, y: 1, z: 1}
    texture: {fileID: 2800000, guid: e2f148e5e555ec54c972d3f075450bc6, type: 3}
    materialId: 0
    anchor: 8
    anchorX: 12
    anchorY: 24
    overrideMesh: {fileID: 0}
    doubleSidedSprite: 0
    customSpriteGeometry: 0
    geometryIslands: []
    dice: 0
    diceUnitX: 64
    diceUnitY: 64
    diceFilter: 0
    pad: 0
    extraPadding: 0
    source: 0
    fromSpriteSheet: 0
    hasSpriteSheetId: 1
    spriteSheetId: 0
    spriteSheetX: 3
    spriteSheetY: 4
    extractRegion: 1
    regionX: 96
    regionY: 96
    regionW: 32
    regionH: 32
    regionId: 51
    colliderType: 0
    colliderData: []
    boxColliderMin: {x: 0, y: 0}
    boxColliderMax: {x: 0, y: 0}
    polyColliderIslands: []
    polyColliderCap: 1
    colliderConvex: 0
    colliderSmoothSphereCollisions: 0
    colliderColor: 0
    attachPoints: []
  - name: weapons-and-equipment/52
    disableTrimming: 0
    additive: 0
    scale: {x: 1, y: 1, z: 1}
    texture: {fileID: 2800000, guid: e2f148e5e555ec54c972d3f075450bc6, type: 3}
    materialId: 0
    anchor: 8
    anchorX: 12
    anchorY: 24
    overrideMesh: {fileID: 0}
    doubleSidedSprite: 0
    customSpriteGeometry: 0
    geometryIslands: []
    dice: 0
    diceUnitX: 64
    diceUnitY: 64
    diceFilter: 0
    pad: 0
    extraPadding: 0
    source: 0
    fromSpriteSheet: 0
    hasSpriteSheetId: 1
    spriteSheetId: 0
    spriteSheetX: 4
    spriteSheetY: 4
    extractRegion: 1
    regionX: 128
    regionY: 96
    regionW: 32
    regionH: 32
    regionId: 52
    colliderType: 0
    colliderData: []
    boxColliderMin: {x: 0, y: 0}
    boxColliderMax: {x: 0, y: 0}
    polyColliderIslands: []
    polyColliderCap: 1
    colliderConvex: 0
    colliderSmoothSphereCollisions: 0
    colliderColor: 0
    attachPoints: []
  - name: weapons-and-equipment/53
    disableTrimming: 0
    additive: 0
    scale: {x: 1, y: 1, z: 1}
    texture: {fileID: 2800000, guid: e2f148e5e555ec54c972d3f075450bc6, type: 3}
    materialId: 0
    anchor: 8
    anchorX: 12
    anchorY: 24
    overrideMesh: {fileID: 0}
    doubleSidedSprite: 0
    customSpriteGeometry: 0
    geometryIslands: []
    dice: 0
    diceUnitX: 64
    diceUnitY: 64
    diceFilter: 0
    pad: 0
    extraPadding: 0
    source: 0
    fromSpriteSheet: 0
    hasSpriteSheetId: 1
    spriteSheetId: 0
    spriteSheetX: 5
    spriteSheetY: 4
    extractRegion: 1
    regionX: 160
    regionY: 96
    regionW: 32
    regionH: 32
    regionId: 53
    colliderType: 0
    colliderData: []
    boxColliderMin: {x: 0, y: 0}
    boxColliderMax: {x: 0, y: 0}
    polyColliderIslands: []
    polyColliderCap: 1
    colliderConvex: 0
    colliderSmoothSphereCollisions: 0
    colliderColor: 0
    attachPoints: []
  - name: weapons-and-equipment/54
    disableTrimming: 0
    additive: 0
    scale: {x: 1, y: 1, z: 1}
    texture: {fileID: 2800000, guid: e2f148e5e555ec54c972d3f075450bc6, type: 3}
    materialId: 0
    anchor: 8
    anchorX: 12
    anchorY: 24
    overrideMesh: {fileID: 0}
    doubleSidedSprite: 0
    customSpriteGeometry: 0
    geometryIslands: []
    dice: 0
    diceUnitX: 64
    diceUnitY: 64
    diceFilter: 0
    pad: 0
    extraPadding: 0
    source: 0
    fromSpriteSheet: 0
    hasSpriteSheetId: 1
    spriteSheetId: 0
    spriteSheetX: 6
    spriteSheetY: 4
    extractRegion: 1
    regionX: 192
    regionY: 96
    regionW: 32
    regionH: 32
    regionId: 54
    colliderType: 0
    colliderData: []
    boxColliderMin: {x: 0, y: 0}
    boxColliderMax: {x: 0, y: 0}
    polyColliderIslands: []
    polyColliderCap: 1
    colliderConvex: 0
    colliderSmoothSphereCollisions: 0
    colliderColor: 0
    attachPoints: []
  - name: weapons-and-equipment/55
    disableTrimming: 0
    additive: 0
    scale: {x: 1, y: 1, z: 1}
    texture: {fileID: 2800000, guid: e2f148e5e555ec54c972d3f075450bc6, type: 3}
    materialId: 0
    anchor: 8
    anchorX: 12
    anchorY: 24
    overrideMesh: {fileID: 0}
    doubleSidedSprite: 0
    customSpriteGeometry: 0
    geometryIslands: []
    dice: 0
    diceUnitX: 64
    diceUnitY: 64
    diceFilter: 0
    pad: 0
    extraPadding: 0
    source: 0
    fromSpriteSheet: 0
    hasSpriteSheetId: 1
    spriteSheetId: 0
    spriteSheetX: 7
    spriteSheetY: 4
    extractRegion: 1
    regionX: 224
    regionY: 96
    regionW: 32
    regionH: 32
    regionId: 55
    colliderType: 0
    colliderData: []
    boxColliderMin: {x: 0, y: 0}
    boxColliderMax: {x: 0, y: 0}
    polyColliderIslands: []
    polyColliderCap: 1
    colliderConvex: 0
    colliderSmoothSphereCollisions: 0
    colliderColor: 0
    attachPoints: []
  - name: weapons-and-equipment/56
    disableTrimming: 0
    additive: 0
    scale: {x: 1, y: 1, z: 1}
    texture: {fileID: 2800000, guid: e2f148e5e555ec54c972d3f075450bc6, type: 3}
    materialId: 0
    anchor: 8
    anchorX: 12
    anchorY: 24
    overrideMesh: {fileID: 0}
    doubleSidedSprite: 0
    customSpriteGeometry: 0
    geometryIslands: []
    dice: 0
    diceUnitX: 64
    diceUnitY: 64
    diceFilter: 0
    pad: 0
    extraPadding: 0
    source: 0
    fromSpriteSheet: 0
    hasSpriteSheetId: 1
    spriteSheetId: 0
    spriteSheetX: 8
    spriteSheetY: 4
    extractRegion: 1
    regionX: 256
    regionY: 96
    regionW: 32
    regionH: 32
    regionId: 56
    colliderType: 0
    colliderData: []
    boxColliderMin: {x: 0, y: 0}
    boxColliderMax: {x: 0, y: 0}
    polyColliderIslands: []
    polyColliderCap: 1
    colliderConvex: 0
    colliderSmoothSphereCollisions: 0
    colliderColor: 0
    attachPoints: []
  - name: weapons-and-equipment/57
    disableTrimming: 0
    additive: 0
    scale: {x: 1, y: 1, z: 1}
    texture: {fileID: 2800000, guid: e2f148e5e555ec54c972d3f075450bc6, type: 3}
    materialId: 0
    anchor: 8
    anchorX: 12
    anchorY: 24
    overrideMesh: {fileID: 0}
    doubleSidedSprite: 0
    customSpriteGeometry: 0
    geometryIslands: []
    dice: 0
    diceUnitX: 64
    diceUnitY: 64
    diceFilter: 0
    pad: 0
    extraPadding: 0
    source: 0
    fromSpriteSheet: 0
    hasSpriteSheetId: 1
    spriteSheetId: 0
    spriteSheetX: 9
    spriteSheetY: 4
    extractRegion: 1
    regionX: 288
    regionY: 96
    regionW: 32
    regionH: 32
    regionId: 57
    colliderType: 0
    colliderData: []
    boxColliderMin: {x: 0, y: 0}
    boxColliderMax: {x: 0, y: 0}
    polyColliderIslands: []
    polyColliderCap: 1
    colliderConvex: 0
    colliderSmoothSphereCollisions: 0
    colliderColor: 0
    attachPoints: []
  - name: weapons-and-equipment/58
    disableTrimming: 0
    additive: 0
    scale: {x: 1, y: 1, z: 1}
    texture: {fileID: 2800000, guid: e2f148e5e555ec54c972d3f075450bc6, type: 3}
    materialId: 0
    anchor: 8
    anchorX: 12
    anchorY: 24
    overrideMesh: {fileID: 0}
    doubleSidedSprite: 0
    customSpriteGeometry: 0
    geometryIslands: []
    dice: 0
    diceUnitX: 64
    diceUnitY: 64
    diceFilter: 0
    pad: 0
    extraPadding: 0
    source: 0
    fromSpriteSheet: 0
    hasSpriteSheetId: 1
    spriteSheetId: 0
    spriteSheetX: 10
    spriteSheetY: 4
    extractRegion: 1
    regionX: 320
    regionY: 96
    regionW: 32
    regionH: 32
    regionId: 58
    colliderType: 0
    colliderData: []
    boxColliderMin: {x: 0, y: 0}
    boxColliderMax: {x: 0, y: 0}
    polyColliderIslands: []
    polyColliderCap: 1
    colliderConvex: 0
    colliderSmoothSphereCollisions: 0
    colliderColor: 0
    attachPoints: []
  - name: weapons-and-equipment/59
    disableTrimming: 0
    additive: 0
    scale: {x: 1, y: 1, z: 1}
    texture: {fileID: 2800000, guid: e2f148e5e555ec54c972d3f075450bc6, type: 3}
    materialId: 0
    anchor: 8
    anchorX: 12
    anchorY: 24
    overrideMesh: {fileID: 0}
    doubleSidedSprite: 0
    customSpriteGeometry: 0
    geometryIslands: []
    dice: 0
    diceUnitX: 64
    diceUnitY: 64
    diceFilter: 0
    pad: 0
    extraPadding: 0
    source: 0
    fromSpriteSheet: 0
    hasSpriteSheetId: 1
    spriteSheetId: 0
    spriteSheetX: 11
    spriteSheetY: 4
    extractRegion: 1
    regionX: 352
    regionY: 96
    regionW: 32
    regionH: 32
    regionId: 59
    colliderType: 0
    colliderData: []
    boxColliderMin: {x: 0, y: 0}
    boxColliderMax: {x: 0, y: 0}
    polyColliderIslands: []
    polyColliderCap: 1
    colliderConvex: 0
    colliderSmoothSphereCollisions: 0
    colliderColor: 0
    attachPoints: []
  - name: weapons-and-equipment/60
    disableTrimming: 0
    additive: 0
    scale: {x: 1, y: 1, z: 1}
    texture: {fileID: 2800000, guid: e2f148e5e555ec54c972d3f075450bc6, type: 3}
    materialId: 0
    anchor: 8
    anchorX: 12
    anchorY: 24
    overrideMesh: {fileID: 0}
    doubleSidedSprite: 0
    customSpriteGeometry: 0
    geometryIslands: []
    dice: 0
    diceUnitX: 64
    diceUnitY: 64
    diceFilter: 0
    pad: 0
    extraPadding: 0
    source: 0
    fromSpriteSheet: 0
    hasSpriteSheetId: 1
    spriteSheetId: 0
    spriteSheetX: 0
    spriteSheetY: 5
    extractRegion: 1
    regionX: 0
    regionY: 64
    regionW: 32
    regionH: 32
    regionId: 60
    colliderType: 0
    colliderData: []
    boxColliderMin: {x: 0, y: 0}
    boxColliderMax: {x: 0, y: 0}
    polyColliderIslands: []
    polyColliderCap: 1
    colliderConvex: 0
    colliderSmoothSphereCollisions: 0
    colliderColor: 0
    attachPoints: []
  - name: weapons-and-equipment/61
    disableTrimming: 0
    additive: 0
    scale: {x: 1, y: 1, z: 1}
    texture: {fileID: 2800000, guid: e2f148e5e555ec54c972d3f075450bc6, type: 3}
    materialId: 0
    anchor: 8
    anchorX: 12
    anchorY: 24
    overrideMesh: {fileID: 0}
    doubleSidedSprite: 0
    customSpriteGeometry: 0
    geometryIslands: []
    dice: 0
    diceUnitX: 64
    diceUnitY: 64
    diceFilter: 0
    pad: 0
    extraPadding: 0
    source: 0
    fromSpriteSheet: 0
    hasSpriteSheetId: 1
    spriteSheetId: 0
    spriteSheetX: 1
    spriteSheetY: 5
    extractRegion: 1
    regionX: 32
    regionY: 64
    regionW: 32
    regionH: 32
    regionId: 61
    colliderType: 0
    colliderData: []
    boxColliderMin: {x: 0, y: 0}
    boxColliderMax: {x: 0, y: 0}
    polyColliderIslands: []
    polyColliderCap: 1
    colliderConvex: 0
    colliderSmoothSphereCollisions: 0
    colliderColor: 0
    attachPoints: []
  - name: weapons-and-equipment/62
    disableTrimming: 0
    additive: 0
    scale: {x: 1, y: 1, z: 1}
    texture: {fileID: 2800000, guid: e2f148e5e555ec54c972d3f075450bc6, type: 3}
    materialId: 0
    anchor: 8
    anchorX: 12
    anchorY: 24
    overrideMesh: {fileID: 0}
    doubleSidedSprite: 0
    customSpriteGeometry: 0
    geometryIslands: []
    dice: 0
    diceUnitX: 64
    diceUnitY: 64
    diceFilter: 0
    pad: 0
    extraPadding: 0
    source: 0
    fromSpriteSheet: 0
    hasSpriteSheetId: 1
    spriteSheetId: 0
    spriteSheetX: 2
    spriteSheetY: 5
    extractRegion: 1
    regionX: 64
    regionY: 64
    regionW: 32
    regionH: 32
    regionId: 62
    colliderType: 0
    colliderData: []
    boxColliderMin: {x: 0, y: 0}
    boxColliderMax: {x: 0, y: 0}
    polyColliderIslands: []
    polyColliderCap: 1
    colliderConvex: 0
    colliderSmoothSphereCollisions: 0
    colliderColor: 0
    attachPoints: []
  - name: weapons-and-equipment/63
    disableTrimming: 0
    additive: 0
    scale: {x: 1, y: 1, z: 1}
    texture: {fileID: 2800000, guid: e2f148e5e555ec54c972d3f075450bc6, type: 3}
    materialId: 0
    anchor: 8
    anchorX: 12
    anchorY: 24
    overrideMesh: {fileID: 0}
    doubleSidedSprite: 0
    customSpriteGeometry: 0
    geometryIslands: []
    dice: 0
    diceUnitX: 64
    diceUnitY: 64
    diceFilter: 0
    pad: 0
    extraPadding: 0
    source: 0
    fromSpriteSheet: 0
    hasSpriteSheetId: 1
    spriteSheetId: 0
    spriteSheetX: 3
    spriteSheetY: 5
    extractRegion: 1
    regionX: 96
    regionY: 64
    regionW: 32
    regionH: 32
    regionId: 63
    colliderType: 0
    colliderData: []
    boxColliderMin: {x: 0, y: 0}
    boxColliderMax: {x: 0, y: 0}
    polyColliderIslands: []
    polyColliderCap: 1
    colliderConvex: 0
    colliderSmoothSphereCollisions: 0
    colliderColor: 0
    attachPoints: []
  - name: weapons-and-equipment/64
    disableTrimming: 0
    additive: 0
    scale: {x: 1, y: 1, z: 1}
    texture: {fileID: 2800000, guid: e2f148e5e555ec54c972d3f075450bc6, type: 3}
    materialId: 0
    anchor: 8
    anchorX: 12
    anchorY: 24
    overrideMesh: {fileID: 0}
    doubleSidedSprite: 0
    customSpriteGeometry: 0
    geometryIslands: []
    dice: 0
    diceUnitX: 64
    diceUnitY: 64
    diceFilter: 0
    pad: 0
    extraPadding: 0
    source: 0
    fromSpriteSheet: 0
    hasSpriteSheetId: 1
    spriteSheetId: 0
    spriteSheetX: 4
    spriteSheetY: 5
    extractRegion: 1
    regionX: 128
    regionY: 64
    regionW: 32
    regionH: 32
    regionId: 64
    colliderType: 0
    colliderData: []
    boxColliderMin: {x: 0, y: 0}
    boxColliderMax: {x: 0, y: 0}
    polyColliderIslands: []
    polyColliderCap: 1
    colliderConvex: 0
    colliderSmoothSphereCollisions: 0
    colliderColor: 0
    attachPoints: []
  - name: weapons-and-equipment/65
    disableTrimming: 0
    additive: 0
    scale: {x: 1, y: 1, z: 1}
    texture: {fileID: 2800000, guid: e2f148e5e555ec54c972d3f075450bc6, type: 3}
    materialId: 0
    anchor: 8
    anchorX: 12
    anchorY: 24
    overrideMesh: {fileID: 0}
    doubleSidedSprite: 0
    customSpriteGeometry: 0
    geometryIslands: []
    dice: 0
    diceUnitX: 64
    diceUnitY: 64
    diceFilter: 0
    pad: 0
    extraPadding: 0
    source: 0
    fromSpriteSheet: 0
    hasSpriteSheetId: 1
    spriteSheetId: 0
    spriteSheetX: 5
    spriteSheetY: 5
    extractRegion: 1
    regionX: 160
    regionY: 64
    regionW: 32
    regionH: 32
    regionId: 65
    colliderType: 0
    colliderData: []
    boxColliderMin: {x: 0, y: 0}
    boxColliderMax: {x: 0, y: 0}
    polyColliderIslands: []
    polyColliderCap: 1
    colliderConvex: 0
    colliderSmoothSphereCollisions: 0
    colliderColor: 0
    attachPoints: []
  - name: weapons-and-equipment/66
    disableTrimming: 0
    additive: 0
    scale: {x: 1, y: 1, z: 1}
    texture: {fileID: 2800000, guid: e2f148e5e555ec54c972d3f075450bc6, type: 3}
    materialId: 0
    anchor: 8
    anchorX: 12
    anchorY: 24
    overrideMesh: {fileID: 0}
    doubleSidedSprite: 0
    customSpriteGeometry: 0
    geometryIslands: []
    dice: 0
    diceUnitX: 64
    diceUnitY: 64
    diceFilter: 0
    pad: 0
    extraPadding: 0
    source: 0
    fromSpriteSheet: 0
    hasSpriteSheetId: 1
    spriteSheetId: 0
    spriteSheetX: 6
    spriteSheetY: 5
    extractRegion: 1
    regionX: 192
    regionY: 64
    regionW: 32
    regionH: 32
    regionId: 66
    colliderType: 0
    colliderData: []
    boxColliderMin: {x: 0, y: 0}
    boxColliderMax: {x: 0, y: 0}
    polyColliderIslands: []
    polyColliderCap: 1
    colliderConvex: 0
    colliderSmoothSphereCollisions: 0
    colliderColor: 0
    attachPoints: []
  - name: weapons-and-equipment/67
    disableTrimming: 0
    additive: 0
    scale: {x: 1, y: 1, z: 1}
    texture: {fileID: 2800000, guid: e2f148e5e555ec54c972d3f075450bc6, type: 3}
    materialId: 0
    anchor: 8
    anchorX: 12
    anchorY: 24
    overrideMesh: {fileID: 0}
    doubleSidedSprite: 0
    customSpriteGeometry: 0
    geometryIslands: []
    dice: 0
    diceUnitX: 64
    diceUnitY: 64
    diceFilter: 0
    pad: 0
    extraPadding: 0
    source: 0
    fromSpriteSheet: 0
    hasSpriteSheetId: 1
    spriteSheetId: 0
    spriteSheetX: 7
    spriteSheetY: 5
    extractRegion: 1
    regionX: 224
    regionY: 64
    regionW: 32
    regionH: 32
    regionId: 67
    colliderType: 0
    colliderData: []
    boxColliderMin: {x: 0, y: 0}
    boxColliderMax: {x: 0, y: 0}
    polyColliderIslands: []
    polyColliderCap: 1
    colliderConvex: 0
    colliderSmoothSphereCollisions: 0
    colliderColor: 0
    attachPoints: []
  - name: weapons-and-equipment/68
    disableTrimming: 0
    additive: 0
    scale: {x: 1, y: 1, z: 1}
    texture: {fileID: 2800000, guid: e2f148e5e555ec54c972d3f075450bc6, type: 3}
    materialId: 0
    anchor: 8
    anchorX: 12
    anchorY: 24
    overrideMesh: {fileID: 0}
    doubleSidedSprite: 0
    customSpriteGeometry: 0
    geometryIslands: []
    dice: 0
    diceUnitX: 64
    diceUnitY: 64
    diceFilter: 0
    pad: 0
    extraPadding: 0
    source: 0
    fromSpriteSheet: 0
    hasSpriteSheetId: 1
    spriteSheetId: 0
    spriteSheetX: 8
    spriteSheetY: 5
    extractRegion: 1
    regionX: 256
    regionY: 64
    regionW: 32
    regionH: 32
    regionId: 68
    colliderType: 0
    colliderData: []
    boxColliderMin: {x: 0, y: 0}
    boxColliderMax: {x: 0, y: 0}
    polyColliderIslands: []
    polyColliderCap: 1
    colliderConvex: 0
    colliderSmoothSphereCollisions: 0
    colliderColor: 0
    attachPoints: []
  - name: weapons-and-equipment/69
    disableTrimming: 0
    additive: 0
    scale: {x: 1, y: 1, z: 1}
    texture: {fileID: 2800000, guid: e2f148e5e555ec54c972d3f075450bc6, type: 3}
    materialId: 0
    anchor: 8
    anchorX: 12
    anchorY: 24
    overrideMesh: {fileID: 0}
    doubleSidedSprite: 0
    customSpriteGeometry: 0
    geometryIslands: []
    dice: 0
    diceUnitX: 64
    diceUnitY: 64
    diceFilter: 0
    pad: 0
    extraPadding: 0
    source: 0
    fromSpriteSheet: 0
    hasSpriteSheetId: 1
    spriteSheetId: 0
    spriteSheetX: 9
    spriteSheetY: 5
    extractRegion: 1
    regionX: 288
    regionY: 64
    regionW: 32
    regionH: 32
    regionId: 69
    colliderType: 0
    colliderData: []
    boxColliderMin: {x: 0, y: 0}
    boxColliderMax: {x: 0, y: 0}
    polyColliderIslands: []
    polyColliderCap: 1
    colliderConvex: 0
    colliderSmoothSphereCollisions: 0
    colliderColor: 0
    attachPoints: []
  - name: weapons-and-equipment/70
    disableTrimming: 0
    additive: 0
    scale: {x: 1, y: 1, z: 1}
    texture: {fileID: 2800000, guid: e2f148e5e555ec54c972d3f075450bc6, type: 3}
    materialId: 0
    anchor: 8
    anchorX: 12
    anchorY: 24
    overrideMesh: {fileID: 0}
    doubleSidedSprite: 0
    customSpriteGeometry: 0
    geometryIslands: []
    dice: 0
    diceUnitX: 64
    diceUnitY: 64
    diceFilter: 0
    pad: 0
    extraPadding: 0
    source: 0
    fromSpriteSheet: 0
    hasSpriteSheetId: 1
    spriteSheetId: 0
    spriteSheetX: 10
    spriteSheetY: 5
    extractRegion: 1
    regionX: 320
    regionY: 64
    regionW: 32
    regionH: 32
    regionId: 70
    colliderType: 0
    colliderData: []
    boxColliderMin: {x: 0, y: 0}
    boxColliderMax: {x: 0, y: 0}
    polyColliderIslands: []
    polyColliderCap: 1
    colliderConvex: 0
    colliderSmoothSphereCollisions: 0
    colliderColor: 0
    attachPoints: []
  - name: weapons-and-equipment/71
    disableTrimming: 0
    additive: 0
    scale: {x: 1, y: 1, z: 1}
    texture: {fileID: 2800000, guid: e2f148e5e555ec54c972d3f075450bc6, type: 3}
    materialId: 0
    anchor: 8
    anchorX: 12
    anchorY: 24
    overrideMesh: {fileID: 0}
    doubleSidedSprite: 0
    customSpriteGeometry: 0
    geometryIslands: []
    dice: 0
    diceUnitX: 64
    diceUnitY: 64
    diceFilter: 0
    pad: 0
    extraPadding: 0
    source: 0
    fromSpriteSheet: 0
    hasSpriteSheetId: 1
    spriteSheetId: 0
    spriteSheetX: 11
    spriteSheetY: 5
    extractRegion: 1
    regionX: 352
    regionY: 64
    regionW: 32
    regionH: 32
    regionId: 71
    colliderType: 0
    colliderData: []
    boxColliderMin: {x: 0, y: 0}
    boxColliderMax: {x: 0, y: 0}
    polyColliderIslands: []
    polyColliderCap: 1
    colliderConvex: 0
    colliderSmoothSphereCollisions: 0
    colliderColor: 0
    attachPoints: []
  - name: weapons-and-equipment/72
    disableTrimming: 0
    additive: 0
    scale: {x: 1, y: 1, z: 1}
    texture: {fileID: 2800000, guid: e2f148e5e555ec54c972d3f075450bc6, type: 3}
    materialId: 0
    anchor: 8
    anchorX: 12
    anchorY: 24
    overrideMesh: {fileID: 0}
    doubleSidedSprite: 0
    customSpriteGeometry: 0
    geometryIslands: []
    dice: 0
    diceUnitX: 64
    diceUnitY: 64
    diceFilter: 0
    pad: 0
    extraPadding: 0
    source: 0
    fromSpriteSheet: 0
    hasSpriteSheetId: 1
    spriteSheetId: 0
    spriteSheetX: 0
    spriteSheetY: 6
    extractRegion: 1
    regionX: 0
    regionY: 32
    regionW: 32
    regionH: 32
    regionId: 72
    colliderType: 0
    colliderData: []
    boxColliderMin: {x: 0, y: 0}
    boxColliderMax: {x: 0, y: 0}
    polyColliderIslands: []
    polyColliderCap: 1
    colliderConvex: 0
    colliderSmoothSphereCollisions: 0
    colliderColor: 0
    attachPoints: []
  - name: weapons-and-equipment/73
    disableTrimming: 0
    additive: 0
    scale: {x: 1, y: 1, z: 1}
    texture: {fileID: 2800000, guid: e2f148e5e555ec54c972d3f075450bc6, type: 3}
    materialId: 0
    anchor: 8
    anchorX: 12
    anchorY: 24
    overrideMesh: {fileID: 0}
    doubleSidedSprite: 0
    customSpriteGeometry: 0
    geometryIslands: []
    dice: 0
    diceUnitX: 64
    diceUnitY: 64
    diceFilter: 0
    pad: 0
    extraPadding: 0
    source: 0
    fromSpriteSheet: 0
    hasSpriteSheetId: 1
    spriteSheetId: 0
    spriteSheetX: 1
    spriteSheetY: 6
    extractRegion: 1
    regionX: 32
    regionY: 32
    regionW: 32
    regionH: 32
    regionId: 73
    colliderType: 0
    colliderData: []
    boxColliderMin: {x: 0, y: 0}
    boxColliderMax: {x: 0, y: 0}
    polyColliderIslands: []
    polyColliderCap: 1
    colliderConvex: 0
    colliderSmoothSphereCollisions: 0
    colliderColor: 0
    attachPoints: []
  - name: weapons-and-equipment/74
    disableTrimming: 0
    additive: 0
    scale: {x: 1, y: 1, z: 1}
    texture: {fileID: 2800000, guid: e2f148e5e555ec54c972d3f075450bc6, type: 3}
    materialId: 0
    anchor: 8
    anchorX: 12
    anchorY: 24
    overrideMesh: {fileID: 0}
    doubleSidedSprite: 0
    customSpriteGeometry: 0
    geometryIslands: []
    dice: 0
    diceUnitX: 64
    diceUnitY: 64
    diceFilter: 0
    pad: 0
    extraPadding: 0
    source: 0
    fromSpriteSheet: 0
    hasSpriteSheetId: 1
    spriteSheetId: 0
    spriteSheetX: 2
    spriteSheetY: 6
    extractRegion: 1
    regionX: 64
    regionY: 32
    regionW: 32
    regionH: 32
    regionId: 74
    colliderType: 0
    colliderData: []
    boxColliderMin: {x: 0, y: 0}
    boxColliderMax: {x: 0, y: 0}
    polyColliderIslands: []
    polyColliderCap: 1
    colliderConvex: 0
    colliderSmoothSphereCollisions: 0
    colliderColor: 0
    attachPoints: []
  - name: weapons-and-equipment/75
    disableTrimming: 0
    additive: 0
    scale: {x: 1, y: 1, z: 1}
    texture: {fileID: 2800000, guid: e2f148e5e555ec54c972d3f075450bc6, type: 3}
    materialId: 0
    anchor: 8
    anchorX: 12
    anchorY: 24
    overrideMesh: {fileID: 0}
    doubleSidedSprite: 0
    customSpriteGeometry: 0
    geometryIslands: []
    dice: 0
    diceUnitX: 64
    diceUnitY: 64
    diceFilter: 0
    pad: 0
    extraPadding: 0
    source: 0
    fromSpriteSheet: 0
    hasSpriteSheetId: 1
    spriteSheetId: 0
    spriteSheetX: 3
    spriteSheetY: 6
    extractRegion: 1
    regionX: 96
    regionY: 32
    regionW: 32
    regionH: 32
    regionId: 75
    colliderType: 0
    colliderData: []
    boxColliderMin: {x: 0, y: 0}
    boxColliderMax: {x: 0, y: 0}
    polyColliderIslands: []
    polyColliderCap: 1
    colliderConvex: 0
    colliderSmoothSphereCollisions: 0
    colliderColor: 0
    attachPoints: []
  - name: weapons-and-equipment/76
    disableTrimming: 0
    additive: 0
    scale: {x: 1, y: 1, z: 1}
    texture: {fileID: 2800000, guid: e2f148e5e555ec54c972d3f075450bc6, type: 3}
    materialId: 0
    anchor: 8
    anchorX: 12
    anchorY: 24
    overrideMesh: {fileID: 0}
    doubleSidedSprite: 0
    customSpriteGeometry: 0
    geometryIslands: []
    dice: 0
    diceUnitX: 64
    diceUnitY: 64
    diceFilter: 0
    pad: 0
    extraPadding: 0
    source: 0
    fromSpriteSheet: 0
    hasSpriteSheetId: 1
    spriteSheetId: 0
    spriteSheetX: 4
    spriteSheetY: 6
    extractRegion: 1
    regionX: 128
    regionY: 32
    regionW: 32
    regionH: 32
    regionId: 76
    colliderType: 0
    colliderData: []
    boxColliderMin: {x: 0, y: 0}
    boxColliderMax: {x: 0, y: 0}
    polyColliderIslands: []
    polyColliderCap: 1
    colliderConvex: 0
    colliderSmoothSphereCollisions: 0
    colliderColor: 0
    attachPoints: []
  - name: weapons-and-equipment/77
    disableTrimming: 0
    additive: 0
    scale: {x: 1, y: 1, z: 1}
    texture: {fileID: 2800000, guid: e2f148e5e555ec54c972d3f075450bc6, type: 3}
    materialId: 0
    anchor: 8
    anchorX: 12
    anchorY: 24
    overrideMesh: {fileID: 0}
    doubleSidedSprite: 0
    customSpriteGeometry: 0
    geometryIslands: []
    dice: 0
    diceUnitX: 64
    diceUnitY: 64
    diceFilter: 0
    pad: 0
    extraPadding: 0
    source: 0
    fromSpriteSheet: 0
    hasSpriteSheetId: 1
    spriteSheetId: 0
    spriteSheetX: 5
    spriteSheetY: 6
    extractRegion: 1
    regionX: 160
    regionY: 32
    regionW: 32
    regionH: 32
    regionId: 77
    colliderType: 0
    colliderData: []
    boxColliderMin: {x: 0, y: 0}
    boxColliderMax: {x: 0, y: 0}
    polyColliderIslands: []
    polyColliderCap: 1
    colliderConvex: 0
    colliderSmoothSphereCollisions: 0
    colliderColor: 0
    attachPoints: []
  - name: weapons-and-equipment/78
    disableTrimming: 0
    additive: 0
    scale: {x: 1, y: 1, z: 1}
    texture: {fileID: 2800000, guid: e2f148e5e555ec54c972d3f075450bc6, type: 3}
    materialId: 0
    anchor: 8
    anchorX: 12
    anchorY: 24
    overrideMesh: {fileID: 0}
    doubleSidedSprite: 0
    customSpriteGeometry: 0
    geometryIslands: []
    dice: 0
    diceUnitX: 64
    diceUnitY: 64
    diceFilter: 0
    pad: 0
    extraPadding: 0
    source: 0
    fromSpriteSheet: 0
    hasSpriteSheetId: 1
    spriteSheetId: 0
    spriteSheetX: 6
    spriteSheetY: 6
    extractRegion: 1
    regionX: 192
    regionY: 32
    regionW: 32
    regionH: 32
    regionId: 78
    colliderType: 0
    colliderData: []
    boxColliderMin: {x: 0, y: 0}
    boxColliderMax: {x: 0, y: 0}
    polyColliderIslands: []
    polyColliderCap: 1
    colliderConvex: 0
    colliderSmoothSphereCollisions: 0
    colliderColor: 0
    attachPoints: []
  - name: weapons-and-equipment/79
    disableTrimming: 0
    additive: 0
    scale: {x: 1, y: 1, z: 1}
    texture: {fileID: 2800000, guid: e2f148e5e555ec54c972d3f075450bc6, type: 3}
    materialId: 0
    anchor: 8
    anchorX: 12
    anchorY: 24
    overrideMesh: {fileID: 0}
    doubleSidedSprite: 0
    customSpriteGeometry: 0
    geometryIslands: []
    dice: 0
    diceUnitX: 64
    diceUnitY: 64
    diceFilter: 0
    pad: 0
    extraPadding: 0
    source: 0
    fromSpriteSheet: 0
    hasSpriteSheetId: 1
    spriteSheetId: 0
    spriteSheetX: 7
    spriteSheetY: 6
    extractRegion: 1
    regionX: 224
    regionY: 32
    regionW: 32
    regionH: 32
    regionId: 79
    colliderType: 0
    colliderData: []
    boxColliderMin: {x: 0, y: 0}
    boxColliderMax: {x: 0, y: 0}
    polyColliderIslands: []
    polyColliderCap: 1
    colliderConvex: 0
    colliderSmoothSphereCollisions: 0
    colliderColor: 0
    attachPoints: []
  - name: weapons-and-equipment/80
    disableTrimming: 0
    additive: 0
    scale: {x: 1, y: 1, z: 1}
    texture: {fileID: 2800000, guid: e2f148e5e555ec54c972d3f075450bc6, type: 3}
    materialId: 0
    anchor: 8
    anchorX: 12
    anchorY: 24
    overrideMesh: {fileID: 0}
    doubleSidedSprite: 0
    customSpriteGeometry: 0
    geometryIslands: []
    dice: 0
    diceUnitX: 64
    diceUnitY: 64
    diceFilter: 0
    pad: 0
    extraPadding: 0
    source: 0
    fromSpriteSheet: 0
    hasSpriteSheetId: 1
    spriteSheetId: 0
    spriteSheetX: 8
    spriteSheetY: 6
    extractRegion: 1
    regionX: 256
    regionY: 32
    regionW: 32
    regionH: 32
    regionId: 80
    colliderType: 0
    colliderData: []
    boxColliderMin: {x: 0, y: 0}
    boxColliderMax: {x: 0, y: 0}
    polyColliderIslands: []
    polyColliderCap: 1
    colliderConvex: 0
    colliderSmoothSphereCollisions: 0
    colliderColor: 0
    attachPoints: []
  - name: weapons-and-equipment/81
    disableTrimming: 0
    additive: 0
    scale: {x: 1, y: 1, z: 1}
    texture: {fileID: 2800000, guid: e2f148e5e555ec54c972d3f075450bc6, type: 3}
    materialId: 0
    anchor: 8
    anchorX: 12
    anchorY: 24
    overrideMesh: {fileID: 0}
    doubleSidedSprite: 0
    customSpriteGeometry: 0
    geometryIslands: []
    dice: 0
    diceUnitX: 64
    diceUnitY: 64
    diceFilter: 0
    pad: 0
    extraPadding: 0
    source: 0
    fromSpriteSheet: 0
    hasSpriteSheetId: 1
    spriteSheetId: 0
    spriteSheetX: 9
    spriteSheetY: 6
    extractRegion: 1
    regionX: 288
    regionY: 32
    regionW: 32
    regionH: 32
    regionId: 81
    colliderType: 0
    colliderData: []
    boxColliderMin: {x: 0, y: 0}
    boxColliderMax: {x: 0, y: 0}
    polyColliderIslands: []
    polyColliderCap: 1
    colliderConvex: 0
    colliderSmoothSphereCollisions: 0
    colliderColor: 0
    attachPoints: []
  - name: weapons-and-equipment/82
    disableTrimming: 0
    additive: 0
    scale: {x: 1, y: 1, z: 1}
    texture: {fileID: 2800000, guid: e2f148e5e555ec54c972d3f075450bc6, type: 3}
    materialId: 0
    anchor: 8
    anchorX: 12
    anchorY: 24
    overrideMesh: {fileID: 0}
    doubleSidedSprite: 0
    customSpriteGeometry: 0
    geometryIslands: []
    dice: 0
    diceUnitX: 64
    diceUnitY: 64
    diceFilter: 0
    pad: 0
    extraPadding: 0
    source: 0
    fromSpriteSheet: 0
    hasSpriteSheetId: 1
    spriteSheetId: 0
    spriteSheetX: 10
    spriteSheetY: 6
    extractRegion: 1
    regionX: 320
    regionY: 32
    regionW: 32
    regionH: 32
    regionId: 82
    colliderType: 0
    colliderData: []
    boxColliderMin: {x: 0, y: 0}
    boxColliderMax: {x: 0, y: 0}
    polyColliderIslands: []
    polyColliderCap: 1
    colliderConvex: 0
    colliderSmoothSphereCollisions: 0
    colliderColor: 0
    attachPoints: []
  - name: weapons-and-equipment/83
    disableTrimming: 0
    additive: 0
    scale: {x: 1, y: 1, z: 1}
    texture: {fileID: 2800000, guid: e2f148e5e555ec54c972d3f075450bc6, type: 3}
    materialId: 0
    anchor: 8
    anchorX: 12
    anchorY: 24
    overrideMesh: {fileID: 0}
    doubleSidedSprite: 0
    customSpriteGeometry: 0
    geometryIslands: []
    dice: 0
    diceUnitX: 64
    diceUnitY: 64
    diceFilter: 0
    pad: 0
    extraPadding: 0
    source: 0
    fromSpriteSheet: 0
    hasSpriteSheetId: 1
    spriteSheetId: 0
    spriteSheetX: 11
    spriteSheetY: 6
    extractRegion: 1
    regionX: 352
    regionY: 32
    regionW: 32
    regionH: 32
    regionId: 83
    colliderType: 0
    colliderData: []
    boxColliderMin: {x: 0, y: 0}
    boxColliderMax: {x: 0, y: 0}
    polyColliderIslands: []
    polyColliderCap: 1
    colliderConvex: 0
    colliderSmoothSphereCollisions: 0
    colliderColor: 0
    attachPoints: []
  - name: weapons-and-equipment/84
    disableTrimming: 0
    additive: 0
    scale: {x: 1, y: 1, z: 1}
    texture: {fileID: 2800000, guid: e2f148e5e555ec54c972d3f075450bc6, type: 3}
    materialId: 0
    anchor: 8
    anchorX: 12
    anchorY: 24
    overrideMesh: {fileID: 0}
    doubleSidedSprite: 0
    customSpriteGeometry: 0
    geometryIslands: []
    dice: 0
    diceUnitX: 64
    diceUnitY: 64
    diceFilter: 0
    pad: 0
    extraPadding: 0
    source: 0
    fromSpriteSheet: 0
    hasSpriteSheetId: 1
    spriteSheetId: 0
    spriteSheetX: 0
    spriteSheetY: 7
    extractRegion: 1
    regionX: 0
    regionY: 0
    regionW: 32
    regionH: 32
    regionId: 84
    colliderType: 0
    colliderData: []
    boxColliderMin: {x: 0, y: 0}
    boxColliderMax: {x: 0, y: 0}
    polyColliderIslands: []
    polyColliderCap: 1
    colliderConvex: 0
    colliderSmoothSphereCollisions: 0
    colliderColor: 0
    attachPoints: []
  - name: weapons-and-equipment/85
    disableTrimming: 0
    additive: 0
    scale: {x: 1, y: 1, z: 1}
    texture: {fileID: 2800000, guid: e2f148e5e555ec54c972d3f075450bc6, type: 3}
    materialId: 0
    anchor: 8
    anchorX: 12
    anchorY: 24
    overrideMesh: {fileID: 0}
    doubleSidedSprite: 0
    customSpriteGeometry: 0
    geometryIslands: []
    dice: 0
    diceUnitX: 64
    diceUnitY: 64
    diceFilter: 0
    pad: 0
    extraPadding: 0
    source: 0
    fromSpriteSheet: 0
    hasSpriteSheetId: 1
    spriteSheetId: 0
    spriteSheetX: 1
    spriteSheetY: 7
    extractRegion: 1
    regionX: 32
    regionY: 0
    regionW: 32
    regionH: 32
    regionId: 85
    colliderType: 0
    colliderData: []
    boxColliderMin: {x: 0, y: 0}
    boxColliderMax: {x: 0, y: 0}
    polyColliderIslands: []
    polyColliderCap: 1
    colliderConvex: 0
    colliderSmoothSphereCollisions: 0
    colliderColor: 0
    attachPoints: []
  - name: weapons-and-equipment/86
    disableTrimming: 0
    additive: 0
    scale: {x: 1, y: 1, z: 1}
    texture: {fileID: 2800000, guid: e2f148e5e555ec54c972d3f075450bc6, type: 3}
    materialId: 0
    anchor: 8
    anchorX: 12
    anchorY: 24
    overrideMesh: {fileID: 0}
    doubleSidedSprite: 0
    customSpriteGeometry: 0
    geometryIslands: []
    dice: 0
    diceUnitX: 64
    diceUnitY: 64
    diceFilter: 0
    pad: 0
    extraPadding: 0
    source: 0
    fromSpriteSheet: 0
    hasSpriteSheetId: 1
    spriteSheetId: 0
    spriteSheetX: 2
    spriteSheetY: 7
    extractRegion: 1
    regionX: 64
    regionY: 0
    regionW: 32
    regionH: 32
    regionId: 86
    colliderType: 0
    colliderData: []
    boxColliderMin: {x: 0, y: 0}
    boxColliderMax: {x: 0, y: 0}
    polyColliderIslands: []
    polyColliderCap: 1
    colliderConvex: 0
    colliderSmoothSphereCollisions: 0
    colliderColor: 0
    attachPoints: []
  - name: weapons-and-equipment/87
    disableTrimming: 0
    additive: 0
    scale: {x: 1, y: 1, z: 1}
    texture: {fileID: 2800000, guid: e2f148e5e555ec54c972d3f075450bc6, type: 3}
    materialId: 0
    anchor: 8
    anchorX: 12
    anchorY: 24
    overrideMesh: {fileID: 0}
    doubleSidedSprite: 0
    customSpriteGeometry: 0
    geometryIslands: []
    dice: 0
    diceUnitX: 64
    diceUnitY: 64
    diceFilter: 0
    pad: 0
    extraPadding: 0
    source: 0
    fromSpriteSheet: 0
    hasSpriteSheetId: 1
    spriteSheetId: 0
    spriteSheetX: 3
    spriteSheetY: 7
    extractRegion: 1
    regionX: 96
    regionY: 0
    regionW: 32
    regionH: 32
    regionId: 87
    colliderType: 0
    colliderData: []
    boxColliderMin: {x: 0, y: 0}
    boxColliderMax: {x: 0, y: 0}
    polyColliderIslands: []
    polyColliderCap: 1
    colliderConvex: 0
    colliderSmoothSphereCollisions: 0
    colliderColor: 0
    attachPoints: []
  - name: weapons-and-equipment/88
    disableTrimming: 0
    additive: 0
    scale: {x: 1, y: 1, z: 1}
    texture: {fileID: 2800000, guid: e2f148e5e555ec54c972d3f075450bc6, type: 3}
    materialId: 0
    anchor: 8
    anchorX: 12
    anchorY: 24
    overrideMesh: {fileID: 0}
    doubleSidedSprite: 0
    customSpriteGeometry: 0
    geometryIslands: []
    dice: 0
    diceUnitX: 64
    diceUnitY: 64
    diceFilter: 0
    pad: 0
    extraPadding: 0
    source: 0
    fromSpriteSheet: 0
    hasSpriteSheetId: 1
    spriteSheetId: 0
    spriteSheetX: 4
    spriteSheetY: 7
    extractRegion: 1
    regionX: 128
    regionY: 0
    regionW: 32
    regionH: 32
    regionId: 88
    colliderType: 0
    colliderData: []
    boxColliderMin: {x: 0, y: 0}
    boxColliderMax: {x: 0, y: 0}
    polyColliderIslands: []
    polyColliderCap: 1
    colliderConvex: 0
    colliderSmoothSphereCollisions: 0
    colliderColor: 0
    attachPoints: []
  - name: weapons-and-equipment/89
    disableTrimming: 0
    additive: 0
    scale: {x: 1, y: 1, z: 1}
    texture: {fileID: 2800000, guid: e2f148e5e555ec54c972d3f075450bc6, type: 3}
    materialId: 0
    anchor: 8
    anchorX: 12
    anchorY: 24
    overrideMesh: {fileID: 0}
    doubleSidedSprite: 0
    customSpriteGeometry: 0
    geometryIslands: []
    dice: 0
    diceUnitX: 64
    diceUnitY: 64
    diceFilter: 0
    pad: 0
    extraPadding: 0
    source: 0
    fromSpriteSheet: 0
    hasSpriteSheetId: 1
    spriteSheetId: 0
    spriteSheetX: 5
    spriteSheetY: 7
    extractRegion: 1
    regionX: 160
    regionY: 0
    regionW: 32
    regionH: 32
    regionId: 89
    colliderType: 0
    colliderData: []
    boxColliderMin: {x: 0, y: 0}
    boxColliderMax: {x: 0, y: 0}
    polyColliderIslands: []
    polyColliderCap: 1
    colliderConvex: 0
    colliderSmoothSphereCollisions: 0
    colliderColor: 0
    attachPoints: []
  - name: weapons-and-equipment/90
    disableTrimming: 0
    additive: 0
    scale: {x: 1, y: 1, z: 1}
    texture: {fileID: 2800000, guid: e2f148e5e555ec54c972d3f075450bc6, type: 3}
    materialId: 0
    anchor: 8
    anchorX: 12
    anchorY: 24
    overrideMesh: {fileID: 0}
    doubleSidedSprite: 0
    customSpriteGeometry: 0
    geometryIslands: []
    dice: 0
    diceUnitX: 64
    diceUnitY: 64
    diceFilter: 0
    pad: 0
    extraPadding: 0
    source: 0
    fromSpriteSheet: 0
    hasSpriteSheetId: 1
    spriteSheetId: 0
    spriteSheetX: 6
    spriteSheetY: 7
    extractRegion: 1
    regionX: 192
    regionY: 0
    regionW: 32
    regionH: 32
    regionId: 90
    colliderType: 0
    colliderData: []
    boxColliderMin: {x: 0, y: 0}
    boxColliderMax: {x: 0, y: 0}
    polyColliderIslands: []
    polyColliderCap: 1
    colliderConvex: 0
    colliderSmoothSphereCollisions: 0
    colliderColor: 0
    attachPoints: []
  - name: weapons-and-equipment/91
    disableTrimming: 0
    additive: 0
    scale: {x: 1, y: 1, z: 1}
    texture: {fileID: 2800000, guid: e2f148e5e555ec54c972d3f075450bc6, type: 3}
    materialId: 0
    anchor: 8
    anchorX: 12
    anchorY: 24
    overrideMesh: {fileID: 0}
    doubleSidedSprite: 0
    customSpriteGeometry: 0
    geometryIslands: []
    dice: 0
    diceUnitX: 64
    diceUnitY: 64
    diceFilter: 0
    pad: 0
    extraPadding: 0
    source: 0
    fromSpriteSheet: 0
    hasSpriteSheetId: 1
    spriteSheetId: 0
    spriteSheetX: 7
    spriteSheetY: 7
    extractRegion: 1
    regionX: 224
    regionY: 0
    regionW: 32
    regionH: 32
    regionId: 91
    colliderType: 0
    colliderData: []
    boxColliderMin: {x: 0, y: 0}
    boxColliderMax: {x: 0, y: 0}
    polyColliderIslands: []
    polyColliderCap: 1
    colliderConvex: 0
    colliderSmoothSphereCollisions: 0
    colliderColor: 0
    attachPoints: []
  - name: weapons-and-equipment/92
    disableTrimming: 0
    additive: 0
    scale: {x: 1, y: 1, z: 1}
    texture: {fileID: 2800000, guid: e2f148e5e555ec54c972d3f075450bc6, type: 3}
    materialId: 0
    anchor: 8
    anchorX: 12
    anchorY: 24
    overrideMesh: {fileID: 0}
    doubleSidedSprite: 0
    customSpriteGeometry: 0
    geometryIslands: []
    dice: 0
    diceUnitX: 64
    diceUnitY: 64
    diceFilter: 0
    pad: 0
    extraPadding: 0
    source: 0
    fromSpriteSheet: 0
    hasSpriteSheetId: 1
    spriteSheetId: 0
    spriteSheetX: 8
    spriteSheetY: 7
    extractRegion: 1
    regionX: 256
    regionY: 0
    regionW: 32
    regionH: 32
    regionId: 92
    colliderType: 0
    colliderData: []
    boxColliderMin: {x: 0, y: 0}
    boxColliderMax: {x: 0, y: 0}
    polyColliderIslands: []
    polyColliderCap: 1
    colliderConvex: 0
    colliderSmoothSphereCollisions: 0
    colliderColor: 0
    attachPoints: []
  - name: weapons-and-equipment/93
    disableTrimming: 0
    additive: 0
    scale: {x: 1, y: 1, z: 1}
    texture: {fileID: 2800000, guid: e2f148e5e555ec54c972d3f075450bc6, type: 3}
    materialId: 0
    anchor: 8
    anchorX: 12
    anchorY: 24
    overrideMesh: {fileID: 0}
    doubleSidedSprite: 0
    customSpriteGeometry: 0
    geometryIslands: []
    dice: 0
    diceUnitX: 64
    diceUnitY: 64
    diceFilter: 0
    pad: 0
    extraPadding: 0
    source: 0
    fromSpriteSheet: 0
    hasSpriteSheetId: 1
    spriteSheetId: 0
    spriteSheetX: 9
    spriteSheetY: 7
    extractRegion: 1
    regionX: 288
    regionY: 0
    regionW: 32
    regionH: 32
    regionId: 93
    colliderType: 0
    colliderData: []
    boxColliderMin: {x: 0, y: 0}
    boxColliderMax: {x: 0, y: 0}
    polyColliderIslands: []
    polyColliderCap: 1
    colliderConvex: 0
    colliderSmoothSphereCollisions: 0
    colliderColor: 0
    attachPoints: []
  - name: weapons-and-equipment/94
    disableTrimming: 0
    additive: 0
    scale: {x: 1, y: 1, z: 1}
    texture: {fileID: 2800000, guid: e2f148e5e555ec54c972d3f075450bc6, type: 3}
    materialId: 0
    anchor: 8
    anchorX: 12
    anchorY: 24
    overrideMesh: {fileID: 0}
    doubleSidedSprite: 0
    customSpriteGeometry: 0
    geometryIslands: []
    dice: 0
    diceUnitX: 64
    diceUnitY: 64
    diceFilter: 0
    pad: 0
    extraPadding: 0
    source: 0
    fromSpriteSheet: 0
    hasSpriteSheetId: 1
    spriteSheetId: 0
    spriteSheetX: 10
    spriteSheetY: 7
    extractRegion: 1
    regionX: 320
    regionY: 0
    regionW: 32
    regionH: 32
    regionId: 94
    colliderType: 0
    colliderData: []
    boxColliderMin: {x: 0, y: 0}
    boxColliderMax: {x: 0, y: 0}
    polyColliderIslands: []
    polyColliderCap: 1
    colliderConvex: 0
    colliderSmoothSphereCollisions: 0
    colliderColor: 0
    attachPoints: []
  - name: weapons-and-equipment/95
    disableTrimming: 0
    additive: 0
    scale: {x: 1, y: 1, z: 1}
    texture: {fileID: 2800000, guid: e2f148e5e555ec54c972d3f075450bc6, type: 3}
    materialId: 0
    anchor: 8
    anchorX: 12
    anchorY: 24
    overrideMesh: {fileID: 0}
    doubleSidedSprite: 0
    customSpriteGeometry: 0
    geometryIslands: []
    dice: 0
    diceUnitX: 64
    diceUnitY: 64
    diceFilter: 0
    pad: 0
    extraPadding: 0
    source: 0
    fromSpriteSheet: 0
    hasSpriteSheetId: 1
    spriteSheetId: 0
    spriteSheetX: 11
    spriteSheetY: 7
    extractRegion: 1
    regionX: 352
    regionY: 0
    regionW: 32
    regionH: 32
    regionId: 95
    colliderType: 0
    colliderData: []
    boxColliderMin: {x: 0, y: 0}
    boxColliderMax: {x: 0, y: 0}
    polyColliderIslands: []
    polyColliderCap: 1
    colliderConvex: 0
    colliderSmoothSphereCollisions: 0
    colliderColor: 0
    attachPoints: []
  spriteCollection: {fileID: 11400000, guid: 471200cebf02fbd4f8e835ce82cd7038, type: 2}
  premultipliedAlpha: 0
  altMaterials:
  - {fileID: 2100000, guid: 2bcb0b95ac877f04b8103681a0cbd855, type: 2}
  atlasMaterials:
  - {fileID: 2100000, guid: 2bcb0b95ac877f04b8103681a0cbd855, type: 2}
  atlasTextures:
  - {fileID: 2800000, guid: 79dcf6c34b2e28940b88f0ee8c06b129, type: 3}
  atlasTextureFiles: []
  useTk2dCamera: 0
  targetHeight: 640
  targetOrthoSize: 10
  sizeDef:
    type: 1
    orthoSize: 10
    pixelsPerMeter: 100
    width: 960
    height: 640
  globalScale: 1
  globalTextureRescale: 1
  attachPointTestSprites: []
  pixelPerfectPointSampled: 0
  filterMode: 0
  wrapMode: 1
  userDefinedTextureSettings: 0
  mipmapEnabled: 0
  anisoLevel: 1
  physicsEngine: 1
  physicsDepth: .100000001
  disableTrimming: 0
  disableRotation: 0
  normalGenerationMode: 0
  padAmount: -1
  autoUpdate: 1
  editorDisplayScale: 2.35000014
  version: 4
  assetName: 
--- !u!1001 &100100000
Prefab:
  m_ObjectHideFlags: 1
  serializedVersion: 2
  m_Modification:
    m_TransformParent: {fileID: 0}
    m_Modifications: []
    m_RemovedComponents: []
  m_ParentPrefab: {fileID: 0}
  m_RootGameObject: {fileID: 100000}
  m_IsPrefabParent: 1
  m_IsExploded: 1
