%YAML 1.1
%TAG !u! tag:unity3d.com,2011:
--- !u!1 &100000
GameObject:
  m_ObjectHideFlags: 0
  m_PrefabParentObject: {fileID: 0}
  m_PrefabInternal: {fileID: 100100000}
  serializedVersion: 4
  m_Component:
  - 4: {fileID: 400000}
  - 114: {fileID: 11400000}
  m_Layer: 0
  m_Name: Nutcracker
  m_TagString: Untagged
  m_Icon: {fileID: 0}
  m_NavMeshLayer: 0
  m_StaticEditorFlags: 0
  m_IsActive: 1
--- !u!4 &400000
Transform:
  m_ObjectHideFlags: 1
  m_PrefabParentObject: {fileID: 0}
  m_PrefabInternal: {fileID: 100100000}
  m_GameObject: {fileID: 100000}
  m_LocalRotation: {x: 0, y: 0, z: 0, w: 1}
  m_LocalPosition: {x: 0, y: 0, z: 0}
  m_LocalScale: {x: 1, y: 1, z: 1}
  m_Children: []
  m_Father: {fileID: 0}
  m_RootOrder: 0
--- !u!114 &11400000
MonoBehaviour:
  m_ObjectHideFlags: 1
  m_PrefabParentObject: {fileID: 0}
  m_PrefabInternal: {fileID: 100100000}
  m_GameObject: {fileID: 100000}
  m_Enabled: 1
  m_EditorHideFlags: 0
  m_Script: {fileID: 11500000, guid: d546f34a90531a14eaba82a43b05b86b, type: 3}
  m_Name: 
  m_EditorClassIdentifier: 
  version: 3
  materialIdsValid: 1
  needMaterialInstance: 0
  spriteDefinitions:
  - name: head
    boundsData:
    - {x: .00499999709, y: 0, z: 0}
    - {x: .129999995, y: .099999994, z: 0}
    untrimmedBoundsData:
    - {x: .00499999523, y: 0, z: 0}
    - {x: .149999991, y: .099999994, z: 0}
    texelSize: {x: .00999999978, y: .00999999978}
    positions:
    - {x: -.0599999987, y: -.049999997, z: 0}
    - {x: .0699999928, y: -.049999997, z: 0}
    - {x: -.0599999987, y: .049999997, z: 0}
    - {x: .0699999928, y: .049999997, z: 0}
    normals: []
    tangents: []
    uvs:
    - {x: .468781263, y: 3.12500015e-05}
    - {x: .874968767, y: 3.12500015e-05}
    - {x: .468781263, y: .312468737}
    - {x: .874968767, y: .312468737}
    indices: 000000000300000001000000020000000300000000000000
    material: {fileID: 2100000, guid: 04dd7edd3584d83488ab99698428df34, type: 2}
    materialId: 0
    sourceTextureGUID: 42f2ad5db7c8ca74bbfecce5653b48e7
    extractRegion: 0
    regionX: 0
    regionY: 0
    regionW: 0
    regionH: 0
    flipped: 0
    complexGeometry: 0
    physicsEngine: 1
    colliderType: 0
    customColliders: []
    colliderVertices: []
    colliderIndicesFwd: 
    colliderIndicesBack: 
    colliderConvex: 0
    colliderSmoothSphereCollisions: 0
    polygonCollider2D: []
    edgeCollider2D: []
    attachPoints: []
  - name: leg1
    boundsData:
    - {x: 0, y: 0, z: 0}
    - {x: .0399999991, y: .199999988, z: 0}
    untrimmedBoundsData:
    - {x: 0, y: 0, z: 0}
    - {x: .0399999991, y: .199999988, z: 0}
    texelSize: {x: .00999999978, y: .00999999978}
    positions:
    - {x: -.0199999996, y: -.099999994, z: 0}
    - {x: .0199999996, y: -.099999994, z: 0}
    - {x: -.0199999996, y: .099999994, z: 0}
    - {x: .0199999996, y: .099999994, z: 0}
    normals: []
    tangents: []
    uvs:
    - {x: .875031233, y: 3.12500015e-05}
    - {x: .999968767, y: 3.12500015e-05}
    - {x: .875031233, y: .624968767}
    - {x: .999968767, y: .624968767}
    indices: 000000000300000001000000020000000300000000000000
    material: {fileID: 2100000, guid: 04dd7edd3584d83488ab99698428df34, type: 2}
    materialId: 0
    sourceTextureGUID: 6f31f03caed469441a914d4bcb262cee
    extractRegion: 0
    regionX: 0
    regionY: 0
    regionW: 0
    regionH: 0
    flipped: 0
    complexGeometry: 0
    physicsEngine: 1
    colliderType: 0
    customColliders: []
    colliderVertices: []
    colliderIndicesFwd: 
    colliderIndicesBack: 
    colliderConvex: 0
    colliderSmoothSphereCollisions: 0
    polygonCollider2D: []
    edgeCollider2D: []
    attachPoints: []
  - name: body
    boundsData:
    - {x: .00499999523, y: 0, z: 0}
    - {x: .149999991, y: .299999982, z: 0}
    untrimmedBoundsData:
    - {x: .00499999523, y: 0, z: 0}
    - {x: .149999991, y: .299999982, z: 0}
    texelSize: {x: .00999999978, y: .00999999978}
    positions:
    - {x: -.0700000003, y: -.149999991, z: 0}
    - {x: .0799999908, y: -.149999991, z: 0}
    - {x: -.0700000003, y: .149999991, z: 0}
    - {x: .0799999908, y: .149999991, z: 0}
    normals: []
    tangents: []
    uvs:
    - {x: 3.12500015e-05, y: 3.12500015e-05}
    - {x: .468718737, y: 3.12500015e-05}
    - {x: 3.12500015e-05, y: .937468767}
    - {x: .468718737, y: .937468767}
    indices: 000000000300000001000000020000000300000000000000
    material: {fileID: 2100000, guid: 04dd7edd3584d83488ab99698428df34, type: 2}
    materialId: 0
    sourceTextureGUID: 706e9d7c2519c644eb2d2535a2e7e807
    extractRegion: 0
    regionX: 0
    regionY: 0
    regionW: 0
    regionH: 0
    flipped: 0
    complexGeometry: 0
    physicsEngine: 1
    colliderType: 0
    customColliders: []
    colliderVertices: []
    colliderIndicesFwd: 
    colliderIndicesBack: 
    colliderConvex: 0
    colliderSmoothSphereCollisions: 0
    polygonCollider2D: []
    edgeCollider2D: []
    attachPoints: []
  - name: hand1
    boundsData:
    - {x: 0, y: 0, z: 0}
    - {x: .0399999991, y: .0799999982, z: 0}
    untrimmedBoundsData:
    - {x: 0, y: 0, z: 0}
    - {x: .0399999991, y: .0799999982, z: 0}
    texelSize: {x: .00999999978, y: .00999999978}
    positions:
    - {x: -.0199999996, y: -.0399999991, z: 0}
    - {x: .0199999996, y: -.0399999991, z: 0}
    - {x: -.0199999996, y: .0399999991, z: 0}
    - {x: .0199999996, y: .0399999991, z: 0}
    normals: []
    tangents: []
    uvs:
    - {x: .468781263, y: .312531263}
    - {x: .593718767, y: .312531263}
    - {x: .468781263, y: .562468767}
    - {x: .593718767, y: .562468767}
    indices: 000000000300000001000000020000000300000000000000
    material: {fileID: 2100000, guid: 04dd7edd3584d83488ab99698428df34, type: 2}
    materialId: 0
    sourceTextureGUID: badafa336d452964598d23da66a58359
    extractRegion: 0
    regionX: 0
    regionY: 0
    regionW: 0
    regionH: 0
    flipped: 0
    complexGeometry: 0
    physicsEngine: 1
    colliderType: 0
    customColliders: []
    colliderVertices: []
    colliderIndicesFwd: 
    colliderIndicesBack: 
    colliderConvex: 0
    colliderSmoothSphereCollisions: 0
    polygonCollider2D: []
    edgeCollider2D: []
    attachPoints: []
  - name: arm1
    boundsData:
    - {x: 0, y: 0, z: 0}
    - {x: .0399999991, y: .119999997, z: 0}
    untrimmedBoundsData:
    - {x: 0, y: 0, z: 0}
    - {x: .0399999991, y: .119999997, z: 0}
    texelSize: {x: .00999999978, y: .00999999978}
    positions:
    - {x: -.0199999996, y: -.0599999987, z: 0}
    - {x: .0199999996, y: -.0599999987, z: 0}
    - {x: -.0199999996, y: .0599999987, z: 0}
    - {x: .0199999996, y: .0599999987, z: 0}
    normals: []
    tangents: []
    uvs:
    - {x: .468781263, y: .625031233}
    - {x: .593718767, y: .625031233}
    - {x: .468781263, y: .999968767}
    - {x: .593718767, y: .999968767}
    indices: 000000000300000001000000020000000300000000000000
    material: {fileID: 2100000, guid: 04dd7edd3584d83488ab99698428df34, type: 2}
    materialId: 0
    sourceTextureGUID: d09755f985898fb4a87010998ed070b7
    extractRegion: 0
    regionX: 0
    regionY: 0
    regionW: 0
    regionH: 0
    flipped: 0
    complexGeometry: 0
    physicsEngine: 1
    colliderType: 0
    customColliders: []
    colliderVertices: []
    colliderIndicesFwd: 
    colliderIndicesBack: 
    colliderConvex: 0
    colliderSmoothSphereCollisions: 0
    polygonCollider2D: []
    edgeCollider2D: []
    attachPoints: []
  - name: leg2
    boundsData:
    - {x: 0, y: 0, z: 0}
    - {x: .0399999991, y: .199999988, z: 0}
    untrimmedBoundsData:
    - {x: 0, y: 0, z: 0}
    - {x: .0399999991, y: .199999988, z: 0}
    texelSize: {x: .00999999978, y: .00999999978}
    positions:
    - {x: -.0199999996, y: -.099999994, z: 0}
    - {x: .0199999996, y: -.099999994, z: 0}
    - {x: -.0199999996, y: .099999994, z: 0}
    - {x: .0199999996, y: .099999994, z: 0}
    normals: []
    tangents: []
    uvs:
    - {x: .875031233, y: 3.12500015e-05}
    - {x: .999968767, y: 3.12500015e-05}
    - {x: .875031233, y: .624968767}
    - {x: .999968767, y: .624968767}
    indices: 000000000300000001000000020000000300000000000000
    material: {fileID: 2100000, guid: 04dd7edd3584d83488ab99698428df34, type: 2}
    materialId: 0
    sourceTextureGUID: 6f31f03caed469441a914d4bcb262cee
    extractRegion: 0
    regionX: 0
    regionY: 0
    regionW: 0
    regionH: 0
    flipped: 0
    complexGeometry: 0
    physicsEngine: 1
    colliderType: 0
    customColliders: []
    colliderVertices: []
    colliderIndicesFwd: 
    colliderIndicesBack: 
    colliderConvex: 0
    colliderSmoothSphereCollisions: 0
    polygonCollider2D: []
    edgeCollider2D: []
    attachPoints: []
  - name: hand2
    boundsData:
    - {x: 0, y: 0, z: 0}
    - {x: .0399999991, y: .0799999982, z: 0}
    untrimmedBoundsData:
    - {x: 0, y: 0, z: 0}
    - {x: .0399999991, y: .0799999982, z: 0}
    texelSize: {x: .00999999978, y: .00999999978}
    positions:
    - {x: -.0199999996, y: -.0399999991, z: 0}
    - {x: .0199999996, y: -.0399999991, z: 0}
    - {x: -.0199999996, y: .0399999991, z: 0}
    - {x: .0199999996, y: .0399999991, z: 0}
    normals: []
    tangents: []
    uvs:
    - {x: .468781263, y: .312531263}
    - {x: .593718767, y: .312531263}
    - {x: .468781263, y: .562468767}
    - {x: .593718767, y: .562468767}
    indices: 000000000300000001000000020000000300000000000000
    material: {fileID: 2100000, guid: 04dd7edd3584d83488ab99698428df34, type: 2}
    materialId: 0
    sourceTextureGUID: badafa336d452964598d23da66a58359
    extractRegion: 0
    regionX: 0
    regionY: 0
    regionW: 0
    regionH: 0
    flipped: 0
    complexGeometry: 0
    physicsEngine: 1
    colliderType: 0
    customColliders: []
    colliderVertices: []
    colliderIndicesFwd: 
    colliderIndicesBack: 
    colliderConvex: 0
    colliderSmoothSphereCollisions: 0
    polygonCollider2D: []
    edgeCollider2D: []
    attachPoints: []
  - name: arm2
    boundsData:
    - {x: 0, y: 0, z: 0}
    - {x: .0399999991, y: .119999997, z: 0}
    untrimmedBoundsData:
    - {x: 0, y: 0, z: 0}
    - {x: .0399999991, y: .119999997, z: 0}
    texelSize: {x: .00999999978, y: .00999999978}
    positions:
    - {x: -.0199999996, y: -.0599999987, z: 0}
    - {x: .0199999996, y: -.0599999987, z: 0}
    - {x: -.0199999996, y: .0599999987, z: 0}
    - {x: .0199999996, y: .0599999987, z: 0}
    normals: []
    tangents: []
    uvs:
    - {x: .468781263, y: .625031233}
    - {x: .593718767, y: .625031233}
    - {x: .468781263, y: .999968767}
    - {x: .593718767, y: .999968767}
    indices: 000000000300000001000000020000000300000000000000
    material: {fileID: 2100000, guid: 04dd7edd3584d83488ab99698428df34, type: 2}
    materialId: 0
    sourceTextureGUID: d09755f985898fb4a87010998ed070b7
    extractRegion: 0
    regionX: 0
    regionY: 0
    regionW: 0
    regionH: 0
    flipped: 0
    complexGeometry: 0
    physicsEngine: 1
    colliderType: 0
    customColliders: []
    colliderVertices: []
    colliderIndicesFwd: 
    colliderIndicesBack: 
    colliderConvex: 0
    colliderSmoothSphereCollisions: 0
    polygonCollider2D: []
    edgeCollider2D: []
    attachPoints: []
  premultipliedAlpha: 0
  material: {fileID: 0}
  materials:
  - {fileID: 2100000, guid: 04dd7edd3584d83488ab99698428df34, type: 2}
  textures:
  - {fileID: 2800000, guid: 1abc29515fd464843badec0b62d4b5ec, type: 3}
  pngTextures: []
  materialPngTextureId: 00000000
  textureFilterMode: 0
  textureMipMaps: 0
  allowMultipleAtlases: 0
  spriteCollectionGUID: 7451eb707b4de794aa1bb0255bbdc1d3
  spriteCollectionName: Nutcracker
  assetName: 
  loadable: 0
  invOrthoSize: 2
  halfTargetHeight: 50
  buildKey: 1209446322
  dataGuid: e3c7474bdadac0e4885687d3fa7539c7
  managedSpriteCollection: 0
  hasPlatformData: 0
  spriteCollectionPlatforms: []
  spriteCollectionPlatformGUIDs: []
--- !u!1001 &100100000
Prefab:
  m_ObjectHideFlags: 1
  serializedVersion: 2
  m_Modification:
    m_TransformParent: {fileID: 0}
    m_Modifications: []
    m_RemovedComponents: []
  m_ParentPrefab: {fileID: 0}
  m_RootGameObject: {fileID: 100000}
  m_IsPrefabParent: 1
  m_IsExploded: 1
