%YAML 1.1
%TAG !u! tag:unity3d.com,2011:
--- !u!1 &100000
GameObject:
  m_ObjectHideFlags: 0
  m_PrefabParentObject: {fileID: 0}
  m_PrefabInternal: {fileID: 100100000}
  serializedVersion: 4
  m_Component:
  - 4: {fileID: 400000}
  - 114: {fileID: 11400000}
  m_Layer: 0
  m_Name: Snowman
  m_TagString: Untagged
  m_Icon: {fileID: 0}
  m_NavMeshLayer: 0
  m_StaticEditorFlags: 0
  m_IsActive: 1
--- !u!4 &400000
Transform:
  m_ObjectHideFlags: 1
  m_PrefabParentObject: {fileID: 0}
  m_PrefabInternal: {fileID: 100100000}
  m_GameObject: {fileID: 100000}
  m_LocalRotation: {x: 0, y: 0, z: 0, w: 1}
  m_LocalPosition: {x: 0, y: 0, z: 0}
  m_LocalScale: {x: 1, y: 1, z: 1}
  m_Children: []
  m_Father: {fileID: 0}
  m_RootOrder: 0
--- !u!114 &11400000
MonoBehaviour:
  m_ObjectHideFlags: 1
  m_PrefabParentObject: {fileID: 0}
  m_PrefabInternal: {fileID: 100100000}
  m_GameObject: {fileID: 100000}
  m_Enabled: 1
  m_EditorHideFlags: 0
  m_Script: {fileID: 11500000, guid: d546f34a90531a14eaba82a43b05b86b, type: 3}
  m_Name: 
  m_EditorClassIdentifier: 
  version: 3
  materialIdsValid: 1
  needMaterialInstance: 0
  spriteDefinitions:
  - name: arm2
    boundsData:
    - {x: .00499999989, y: 0, z: 0}
    - {x: .00999999978, y: .119999997, z: 0}
    untrimmedBoundsData:
    - {x: 0, y: 0, z: 0}
    - {x: .0399999991, y: .119999997, z: 0}
    texelSize: {x: .00999999978, y: .00999999978}
    positions:
    - {x: 0, y: -.0599999987, z: 0}
    - {x: .00999999978, y: -.0599999987, z: 0}
    - {x: 0, y: .0599999987, z: 0}
    - {x: .00999999978, y: .0599999987, z: 0}
    normals: []
    tangents: []
    uvs:
    - {x: 3.12500015e-05, y: .937531233}
    - {x: 3.12500015e-05, y: .968718767}
    - {x: .374968737, y: .937531233}
    - {x: .374968737, y: .968718767}
    indices: 000000000300000001000000020000000300000000000000
    material: {fileID: 2100000, guid: 887a3440ee913b244962c52060ca9cc3, type: 2}
    materialId: 0
    sourceTextureGUID: 019f9a5288e4043488d038083dbc572a
    extractRegion: 0
    regionX: 0
    regionY: 0
    regionW: 0
    regionH: 0
    flipped: 1
    complexGeometry: 0
    physicsEngine: 1
    colliderType: 0
    customColliders: []
    colliderVertices: []
    colliderIndicesFwd: 
    colliderIndicesBack: 
    colliderConvex: 0
    colliderSmoothSphereCollisions: 0
    polygonCollider2D: []
    edgeCollider2D: []
    attachPoints: []
  - name: arm1
    boundsData:
    - {x: .00499999989, y: 0, z: 0}
    - {x: .00999999978, y: .119999997, z: 0}
    untrimmedBoundsData:
    - {x: 0, y: 0, z: 0}
    - {x: .0399999991, y: .119999997, z: 0}
    texelSize: {x: .00999999978, y: .00999999978}
    positions:
    - {x: 0, y: -.0599999987, z: 0}
    - {x: .00999999978, y: -.0599999987, z: 0}
    - {x: 0, y: .0599999987, z: 0}
    - {x: .00999999978, y: .0599999987, z: 0}
    normals: []
    tangents: []
    uvs:
    - {x: 3.12500015e-05, y: .937531233}
    - {x: 3.12500015e-05, y: .968718767}
    - {x: .374968737, y: .937531233}
    - {x: .374968737, y: .968718767}
    indices: 000000000300000001000000020000000300000000000000
    material: {fileID: 2100000, guid: 887a3440ee913b244962c52060ca9cc3, type: 2}
    materialId: 0
    sourceTextureGUID: 8eb5a82406181f44a8c682e0a73af9a8
    extractRegion: 0
    regionX: 0
    regionY: 0
    regionW: 0
    regionH: 0
    flipped: 1
    complexGeometry: 0
    physicsEngine: 1
    colliderType: 0
    customColliders: []
    colliderVertices: []
    colliderIndicesFwd: 
    colliderIndicesBack: 
    colliderConvex: 0
    colliderSmoothSphereCollisions: 0
    polygonCollider2D: []
    edgeCollider2D: []
    attachPoints: []
  - name: leg1
    boundsData:
    - {x: 0, y: 0, z: 0}
    - {x: .0399999991, y: .199999988, z: 0}
    untrimmedBoundsData:
    - {x: 0, y: 0, z: 0}
    - {x: .0399999991, y: .199999988, z: 0}
    texelSize: {x: .00999999978, y: .00999999978}
    positions:
    - {x: -.0199999996, y: -.099999994, z: 0}
    - {x: .0199999996, y: -.099999994, z: 0}
    - {x: -.0199999996, y: .099999994, z: 0}
    - {x: .0199999996, y: .099999994, z: 0}
    normals: []
    tangents: []
    uvs:
    - {x: .843781233, y: 3.12500015e-05}
    - {x: .968718767, y: 3.12500015e-05}
    - {x: .843781233, y: .624968767}
    - {x: .968718767, y: .624968767}
    indices: 000000000300000001000000020000000300000000000000
    material: {fileID: 2100000, guid: 887a3440ee913b244962c52060ca9cc3, type: 2}
    materialId: 0
    sourceTextureGUID: dcc3be3b8548d474a8d4cbc83cec5764
    extractRegion: 0
    regionX: 0
    regionY: 0
    regionW: 0
    regionH: 0
    flipped: 0
    complexGeometry: 0
    physicsEngine: 1
    colliderType: 0
    customColliders: []
    colliderVertices: []
    colliderIndicesFwd: 
    colliderIndicesBack: 
    colliderConvex: 0
    colliderSmoothSphereCollisions: 0
    polygonCollider2D: []
    edgeCollider2D: []
    attachPoints: []
  - name: hand2
    boundsData:
    - {x: .00499999896, y: .00999999978, z: 0}
    - {x: .049999997, y: .0599999987, z: 0}
    untrimmedBoundsData:
    - {x: .00499999896, y: 0, z: 0}
    - {x: .049999997, y: .0799999982, z: 0}
    texelSize: {x: .00999999978, y: .00999999978}
    positions:
    - {x: -.0199999996, y: -.0199999996, z: 0}
    - {x: .0299999975, y: -.0199999996, z: 0}
    - {x: -.0199999996, y: .0399999991, z: 0}
    - {x: .0299999975, y: .0399999991, z: 0}
    normals: []
    tangents: []
    uvs:
    - {x: .406281263, y: .625031233}
    - {x: .562468767, y: .625031233}
    - {x: .406281263, y: .812468767}
    - {x: .562468767, y: .812468767}
    indices: 000000000300000001000000020000000300000000000000
    material: {fileID: 2100000, guid: 887a3440ee913b244962c52060ca9cc3, type: 2}
    materialId: 0
    sourceTextureGUID: af2fe52fd86900c4da2dc90f6a4b0576
    extractRegion: 0
    regionX: 0
    regionY: 0
    regionW: 0
    regionH: 0
    flipped: 0
    complexGeometry: 0
    physicsEngine: 1
    colliderType: 0
    customColliders: []
    colliderVertices: []
    colliderIndicesFwd: 
    colliderIndicesBack: 
    colliderConvex: 0
    colliderSmoothSphereCollisions: 0
    polygonCollider2D: []
    edgeCollider2D: []
    attachPoints: []
  - name: head
    boundsData:
    - {x: .00999999605, y: 0, z: 0}
    - {x: .139999986, y: .099999994, z: 0}
    untrimmedBoundsData:
    - {x: .00499999523, y: 0, z: 0}
    - {x: .149999991, y: .099999994, z: 0}
    texelSize: {x: .00999999978, y: .00999999978}
    positions:
    - {x: -.0599999987, y: -.049999997, z: 0}
    - {x: .0799999908, y: -.049999997, z: 0}
    - {x: -.0599999987, y: .049999997, z: 0}
    - {x: .0799999908, y: .049999997, z: 0}
    normals: []
    tangents: []
    uvs:
    - {x: .406281263, y: 3.12500015e-05}
    - {x: .843718767, y: 3.12500015e-05}
    - {x: .406281263, y: .312468737}
    - {x: .843718767, y: .312468737}
    indices: 000000000300000001000000020000000300000000000000
    material: {fileID: 2100000, guid: 887a3440ee913b244962c52060ca9cc3, type: 2}
    materialId: 0
    sourceTextureGUID: bafef68badab7f3489d25c693dea12cb
    extractRegion: 0
    regionX: 0
    regionY: 0
    regionW: 0
    regionH: 0
    flipped: 0
    complexGeometry: 0
    physicsEngine: 1
    colliderType: 0
    customColliders: []
    colliderVertices: []
    colliderIndicesFwd: 
    colliderIndicesBack: 
    colliderConvex: 0
    colliderSmoothSphereCollisions: 0
    polygonCollider2D: []
    edgeCollider2D: []
    attachPoints: []
  - name: body
    boundsData:
    - {x: .00499999709, y: 0, z: 0}
    - {x: .129999995, y: .299999982, z: 0}
    untrimmedBoundsData:
    - {x: .00499999523, y: 0, z: 0}
    - {x: .149999991, y: .299999982, z: 0}
    texelSize: {x: .00999999978, y: .00999999978}
    positions:
    - {x: -.0599999987, y: -.149999991, z: 0}
    - {x: .0699999928, y: -.149999991, z: 0}
    - {x: -.0599999987, y: .149999991, z: 0}
    - {x: .0699999928, y: .149999991, z: 0}
    normals: []
    tangents: []
    uvs:
    - {x: 3.12500015e-05, y: 3.12500015e-05}
    - {x: .406218737, y: 3.12500015e-05}
    - {x: 3.12500015e-05, y: .937468767}
    - {x: .406218737, y: .937468767}
    indices: 000000000300000001000000020000000300000000000000
    material: {fileID: 2100000, guid: 887a3440ee913b244962c52060ca9cc3, type: 2}
    materialId: 0
    sourceTextureGUID: 29ca18cd7afcd054d8b43c6f6a1c314f
    extractRegion: 0
    regionX: 0
    regionY: 0
    regionW: 0
    regionH: 0
    flipped: 0
    complexGeometry: 0
    physicsEngine: 1
    colliderType: 0
    customColliders: []
    colliderVertices: []
    colliderIndicesFwd: 
    colliderIndicesBack: 
    colliderConvex: 0
    colliderSmoothSphereCollisions: 0
    polygonCollider2D: []
    edgeCollider2D: []
    attachPoints: []
  - name: leg2
    boundsData:
    - {x: 0, y: 0, z: 0}
    - {x: .0399999991, y: .199999988, z: 0}
    untrimmedBoundsData:
    - {x: 0, y: 0, z: 0}
    - {x: .0399999991, y: .199999988, z: 0}
    texelSize: {x: .00999999978, y: .00999999978}
    positions:
    - {x: -.0199999996, y: -.099999994, z: 0}
    - {x: .0199999996, y: -.099999994, z: 0}
    - {x: -.0199999996, y: .099999994, z: 0}
    - {x: .0199999996, y: .099999994, z: 0}
    normals: []
    tangents: []
    uvs:
    - {x: .562531233, y: .312531263}
    - {x: .687468767, y: .312531263}
    - {x: .562531233, y: .937468767}
    - {x: .687468767, y: .937468767}
    indices: 000000000300000001000000020000000300000000000000
    material: {fileID: 2100000, guid: 887a3440ee913b244962c52060ca9cc3, type: 2}
    materialId: 0
    sourceTextureGUID: a6a90bcef87164a49876ac20e95bec6c
    extractRegion: 0
    regionX: 0
    regionY: 0
    regionW: 0
    regionH: 0
    flipped: 0
    complexGeometry: 0
    physicsEngine: 1
    colliderType: 0
    customColliders: []
    colliderVertices: []
    colliderIndicesFwd: 
    colliderIndicesBack: 
    colliderConvex: 0
    colliderSmoothSphereCollisions: 0
    polygonCollider2D: []
    edgeCollider2D: []
    attachPoints: []
  - name: hand1
    boundsData:
    - {x: .00499999896, y: .00999999978, z: 0}
    - {x: .049999997, y: .0599999987, z: 0}
    untrimmedBoundsData:
    - {x: .00499999896, y: 0, z: 0}
    - {x: .049999997, y: .0799999982, z: 0}
    texelSize: {x: .00999999978, y: .00999999978}
    positions:
    - {x: -.0199999996, y: -.0199999996, z: 0}
    - {x: .0299999975, y: -.0199999996, z: 0}
    - {x: -.0199999996, y: .0399999991, z: 0}
    - {x: .0299999975, y: .0399999991, z: 0}
    normals: []
    tangents: []
    uvs:
    - {x: .406281263, y: .625031233}
    - {x: .562468767, y: .625031233}
    - {x: .406281263, y: .812468767}
    - {x: .562468767, y: .812468767}
    indices: 000000000300000001000000020000000300000000000000
    material: {fileID: 2100000, guid: 887a3440ee913b244962c52060ca9cc3, type: 2}
    materialId: 0
    sourceTextureGUID: af2fe52fd86900c4da2dc90f6a4b0576
    extractRegion: 0
    regionX: 0
    regionY: 0
    regionW: 0
    regionH: 0
    flipped: 0
    complexGeometry: 0
    physicsEngine: 1
    colliderType: 0
    customColliders: []
    colliderVertices: []
    colliderIndicesFwd: 
    colliderIndicesBack: 
    colliderConvex: 0
    colliderSmoothSphereCollisions: 0
    polygonCollider2D: []
    edgeCollider2D: []
    attachPoints: []
  premultipliedAlpha: 0
  material: {fileID: 0}
  materials:
  - {fileID: 2100000, guid: 887a3440ee913b244962c52060ca9cc3, type: 2}
  textures:
  - {fileID: 2800000, guid: f527218e1727002478ee6da1f7f51452, type: 3}
  pngTextures: []
  materialPngTextureId: 00000000
  textureFilterMode: 0
  textureMipMaps: 0
  allowMultipleAtlases: 0
  spriteCollectionGUID: e1757267fb29b9b4d8545d02ff488e85
  spriteCollectionName: Snowman
  assetName: 
  loadable: 0
  invOrthoSize: 2
  halfTargetHeight: 50
  buildKey: 115737086
  dataGuid: a87dd29856262ca4f80b8fba1cc1471c
  managedSpriteCollection: 0
  hasPlatformData: 0
  spriteCollectionPlatforms: []
  spriteCollectionPlatformGUIDs: []
--- !u!1001 &100100000
Prefab:
  m_ObjectHideFlags: 1
  serializedVersion: 2
  m_Modification:
    m_TransformParent: {fileID: 0}
    m_Modifications: []
    m_RemovedComponents: []
  m_ParentPrefab: {fileID: 0}
  m_RootGameObject: {fileID: 100000}
  m_IsPrefabParent: 1
  m_IsExploded: 1
